pipelined_fibo.vcd
$date
	Sat Jun 21 23:52:10 2025
$end
$version
	Icarus Verilog
$end
$timescale
	1ps
$end
$scope module pipelined_cpu_tb $end
$var wire 64 ! debug_out [63:0] $end
$var reg 1 " clk $end
$var reg 1 # rst $end
$var integer 32 $ cycle_count [31:0] $end
$scope module cpu $end
$var wire 1 " clk $end
$var wire 64 % ex_alu_a_input [63:0] $end
$var wire 1 & ex_branch_taken $end
$var wire 1 ' ex_prediction_incorrect $end
$var wire 1 ( flush_pipeline $end
$var wire 1 # rst $end
$var wire 64 ) wb_write_data [63:0] $end
$var wire 1 * wb_reg_write $end
$var wire 64 + wb_read_data [63:0] $end
$var wire 5 , wb_rd [4:0] $end
$var wire 1 - wb_mem_to_reg $end
$var wire 64 . wb_alu_result [63:0] $end
$var wire 1 / mem_zero $end
$var wire 64 0 mem_write_data [63:0] $end
$var wire 1 1 mem_reg_write $end
$var wire 64 2 mem_read_data [63:0] $end
$var wire 5 3 mem_rd [4:0] $end
$var wire 1 4 mem_mem_write $end
$var wire 1 5 mem_mem_to_reg $end
$var wire 1 6 mem_mem_read $end
$var wire 64 7 mem_alu_result [63:0] $end
$var wire 1 8 is_store_instr $end
$var wire 64 9 if_pc [63:0] $end
$var wire 32 : if_instruction [31:0] $end
$var wire 5 ; id_rs2_raw [4:0] $end
$var wire 64 < id_rs2_data [63:0] $end
$var wire 5 = id_rs2 [4:0] $end
$var wire 5 > id_rs1_raw [4:0] $end
$var wire 64 ? id_rs1_data [63:0] $end
$var wire 5 @ id_rs1 [4:0] $end
$var wire 1 A id_reg_write $end
$var wire 5 B id_rd_raw [4:0] $end
$var wire 5 C id_rd [4:0] $end
$var wire 1 D id_prediction $end
$var wire 64 E id_pc [63:0] $end
$var wire 7 F id_opcode [6:0] $end
$var wire 1 G id_mem_write $end
$var wire 1 H id_mem_to_reg $end
$var wire 1 I id_mem_read $end
$var wire 32 J id_instruction [31:0] $end
$var wire 64 K id_imm [63:0] $end
$var wire 1 L id_branch $end
$var wire 1 M id_alu_src $end
$var wire 3 N id_alu_control [2:0] $end
$var wire 1 O hazard_stall $end
$var wire 1 P ex_zero $end
$var wire 64 Q ex_rs2_data [63:0] $end
$var wire 5 R ex_rs2 [4:0] $end
$var wire 64 S ex_rs1_data [63:0] $end
$var wire 5 T ex_rs1 [4:0] $end
$var wire 1 U ex_reg_write $end
$var wire 5 V ex_rd [4:0] $end
$var wire 1 W ex_prediction $end
$var wire 64 X ex_pc [63:0] $end
$var wire 1 Y ex_mem_write $end
$var wire 1 Z ex_mem_to_reg $end
$var wire 1 [ ex_mem_read $end
$var wire 64 \ ex_imm [63:0] $end
$var wire 2 ] ex_forward_b [1:0] $end
$var wire 2 ^ ex_forward_a [1:0] $end
$var wire 64 _ ex_corrected_pc [63:0] $end
$var wire 64 ` ex_branch_target [63:0] $end
$var wire 1 a ex_branch $end
$var wire 1 b ex_alu_src $end
$var wire 64 c ex_alu_result [63:0] $end
$var wire 3 d ex_alu_control [2:0] $end
$var wire 64 e ex_alu_b_input [63:0] $end
$var wire 64 f debug_out [63:0] $end
$var wire 1 g branch_prediction $end
$var reg 2 h ex_forward_store [1:0] $end
$var reg 64 i ex_forwarded_a [63:0] $end
$var reg 64 j ex_forwarded_b [63:0] $end
$var reg 64 k ex_store_data [63:0] $end
$scope module alu_inst $end
$var wire 64 l a [63:0] $end
$var wire 64 m b [63:0] $end
$var wire 2 n forward_a [1:0] $end
$var wire 2 o forward_b [1:0] $end
$var wire 64 p mem_result [63:0] $end
$var wire 64 q wb_result [63:0] $end
$var wire 1 P zero $end
$var wire 3 r alu_control [2:0] $end
$var reg 64 s result [63:0] $end
$upscope $end
$scope module bp_inst $end
$var wire 1 & branch_taken $end
$var wire 1 " clk $end
$var wire 1 g prediction $end
$var wire 1 # rst $end
$var wire 4 t resolved_index [3:0] $end
$var wire 64 u pc [63:0] $end
$var wire 4 v index [3:0] $end
$var wire 1 a branch_resolved $end
$var wire 64 w branch_pc [63:0] $end
$scope begin $ivl_for_loop0 $end
$var integer 32 x i [31:0] $end
$upscope $end
$upscope $end
$scope module cu_inst $end
$var wire 3 y funct3 [2:0] $end
$var wire 7 z funct7 [6:0] $end
$var wire 7 { opcode [6:0] $end
$var reg 3 | alu_control [2:0] $end
$var reg 1 M alu_src $end
$var reg 1 L branch $end
$var reg 1 I mem_read $end
$var reg 1 H mem_to_reg $end
$var reg 1 G mem_write $end
$var reg 1 A reg_write $end
$upscope $end
$scope module data_mem_inst $end
$var wire 32 } addr [31:0] $end
$var wire 1 " clk $end
$var wire 1 # rst $end
$var wire 1 4 wr_enable $end
$var wire 64 ~ wr_data [63:0] $end
$var wire 32 !" word_addr [31:0] $end
$var wire 1 6 rd_enable $end
$var wire 64 "" rd_data [63:0] $end
$var parameter 32 #" mem_size $end
$var parameter 176 $" rom_file $end
$var parameter 32 %" rom_size $end
$var integer 32 &" i [31:0] $end
$upscope $end
$scope module ex_mem_reg_inst $end
$var wire 64 '" alu_result_in [63:0] $end
$var wire 1 " clk $end
$var wire 1 # rst $end
$var wire 64 (" wr_data_in [63:0] $end
$var wire 1 P zero_in $end
$var wire 1 U reg_wr_in $end
$var wire 5 )" rd_addr_in [4:0] $end
$var wire 1 Y mem_wr_in $end
$var wire 1 Z mem_to_reg_in $end
$var wire 1 [ mem_rd_in $end
$var reg 64 *" alu_result_out [63:0] $end
$var reg 1 6 mem_rd_out $end
$var reg 1 5 mem_to_reg_out $end
$var reg 1 4 mem_wr_out $end
$var reg 5 +" rd_addr_out [4:0] $end
$var reg 1 1 reg_wr_out $end
$var reg 64 ," wr_data_out [63:0] $end
$var reg 1 / zero_out $end
$upscope $end
$scope module fu_inst $end
$var wire 5 -" mem_rd [4:0] $end
$var wire 1 1 mem_reg_wr $end
$var wire 1 * wb_reg_wr $end
$var wire 5 ." wb_rd [4:0] $end
$var wire 5 /" ex_rs2 [4:0] $end
$var wire 5 0" ex_rs1 [4:0] $end
$var reg 2 1" forward_a [1:0] $end
$var reg 2 2" forward_b [1:0] $end
$upscope $end
$scope module hdu_inst $end
$var wire 1 3" flush_id_ex $end
$var wire 1 L id_branch $end
$var wire 1 I id_mem_rd $end
$var wire 1 G id_mem_wr $end
$var wire 5 4" id_rs1 [4:0] $end
$var wire 5 5" id_rs2 [4:0] $end
$var wire 1 6 mem_mem_rd $end
$var wire 5 6" mem_rd [4:0] $end
$var wire 1 1 mem_reg_wr $end
$var wire 1 U ex_reg_wr $end
$var wire 5 7" ex_rd [4:0] $end
$var wire 1 [ ex_mem_rd $end
$var reg 1 8" branch_load_hazard $end
$var reg 1 9" branch_load_hazard_mem $end
$var reg 1 :" double_load_hazard $end
$var reg 1 ;" load_hazard_ex $end
$var reg 1 <" load_hazard_mem $end
$var reg 1 O stall $end
$var reg 1 =" store_data_hazard $end
$upscope $end
$scope module id_ex_reg_inst $end
$var wire 3 >" alu_control_in [2:0] $end
$var wire 1 M alu_src_in $end
$var wire 1 L branch_in $end
$var wire 1 " clk $end
$var wire 1 ( flush $end
$var wire 1 I mem_rd_in $end
$var wire 1 H mem_to_reg_in $end
$var wire 1 G mem_wr_in $end
$var wire 5 ?" rd_addr_in [4:0] $end
$var wire 1 A reg_wr_in $end
$var wire 5 @" rs1_addr_in [4:0] $end
$var wire 5 A" rs2_addr_in [4:0] $end
$var wire 1 # rst $end
$var wire 64 B" rs2_data_in [63:0] $end
$var wire 64 C" rs1_data_in [63:0] $end
$var wire 1 D prediction_in $end
$var wire 64 D" pc_in [63:0] $end
$var wire 64 E" imm_in [63:0] $end
$var reg 3 F" alu_control_out [2:0] $end
$var reg 1 b alu_src_out $end
$var reg 1 a branch_out $end
$var reg 64 G" imm_out [63:0] $end
$var reg 1 [ mem_rd_out $end
$var reg 1 Z mem_to_reg_out $end
$var reg 1 Y mem_wr_out $end
$var reg 64 H" pc_out [63:0] $end
$var reg 1 W prediction_out $end
$var reg 5 I" rd_addr_out [4:0] $end
$var reg 1 U reg_wr_out $end
$var reg 5 J" rs1_addr_out [4:0] $end
$var reg 64 K" rs1_data_out [63:0] $end
$var reg 5 L" rs2_addr_out [4:0] $end
$var reg 64 M" rs2_data_out [63:0] $end
$upscope $end
$scope module if_id_reg_inst $end
$var wire 1 " clk $end
$var wire 1 ( flush $end
$var wire 1 g prediction_in $end
$var wire 1 # rst $end
$var wire 1 O stall $end
$var wire 64 N" pc_in [63:0] $end
$var wire 32 O" instr_in [31:0] $end
$var reg 32 P" instr_out [31:0] $end
$var reg 64 Q" pc_out [63:0] $end
$var reg 1 D prediction_out $end
$upscope $end
$scope module instr_mem_inst $end
$var wire 32 R" address [31:0] $end
$var wire 32 S" word_addr [31:0] $end
$var wire 32 T" instruction [31:0] $end
$var parameter 176 U" mem_file $end
$var parameter 32 V" mem_size $end
$var integer 32 W" i [31:0] $end
$upscope $end
$scope module mem_wb_reg_inst $end
$var wire 64 X" alu_result_in [63:0] $end
$var wire 1 " clk $end
$var wire 1 5 mem_to_reg_in $end
$var wire 5 Y" rd_addr_in [4:0] $end
$var wire 64 Z" rd_data_in [63:0] $end
$var wire 1 1 reg_wr_in $end
$var wire 1 # rst $end
$var reg 64 [" alu_result_out [63:0] $end
$var reg 1 - mem_to_reg_out $end
$var reg 5 \" rd_addr_out [4:0] $end
$var reg 64 ]" rd_data_out [63:0] $end
$var reg 1 * reg_wr_out $end
$upscope $end
$scope module pc_logic_inst $end
$var wire 1 ^" branch_taken $end
$var wire 64 _" branch_target [63:0] $end
$var wire 1 " clk $end
$var wire 64 `" corrected_pc [63:0] $end
$var wire 1 ' prediction_incorrect $end
$var wire 1 # rst $end
$var wire 1 O stall $end
$var reg 64 a" pc [63:0] $end
$var reg 64 b" pc_next [63:0] $end
$upscope $end
$scope module rf_inst $end
$var wire 1 " clk $end
$var wire 64 c" debug_output [63:0] $end
$var wire 5 d" rd_addr1 [4:0] $end
$var wire 5 e" rd_addr2 [4:0] $end
$var wire 1 # rst $end
$var wire 5 f" wr_addr [4:0] $end
$var wire 64 g" wr_data [63:0] $end
$var wire 1 * wr_enable $end
$var wire 64 h" rd_data2 [63:0] $end
$var wire 64 i" rd_data1 [63:0] $end
$var integer 32 j" i [31:0] $end
$upscope $end
$scope module sign_ext_inst $end
$var wire 32 k" instr [31:0] $end
$var wire 64 l" imm_s [63:0] $end
$var wire 64 m" imm_out [63:0] $end
$var wire 64 n" imm_i [63:0] $end
$var wire 64 o" imm_b [63:0] $end
$upscope $end
$upscope $end
$scope begin $unm_blk_100 $end
$var integer 32 p" correct_count [31:0] $end
$var integer 32 q" i [31:0] $end
$var integer 32 r" mem_addr [31:0] $end
$var integer 32 s" mem_value [31:0] $end
$upscope $end
$upscope $end
$enddefinitions $end
$comment Show the parameter values. $end
$dumpall
b10001 V"
b1110000011100100110111101100111011100100110000101101101011100110010111101100110011010010110001001101111010111110110001101101111011011010111000000101110011011010110010101101101 U"
b10 %"
b1110000011100100110111101100111011100100110000101101101011100110010111101100110011010010110001001101111010111110110010001100001011101000110000100101110011011010110010101101101 $"
b100000000 #"
$end
#0
$dumpvars
bx s"
bx r"
bx q"
bx p"
b0 o"
b0 n"
b0 m"
b0 l"
b10011 k"
b100000 j"
b0 i"
b0 h"
b0 g"
b0 f"
b0 e"
b0 d"
b0 c"
b100 b"
b0 a"
b100 `"
b0 _"
0^"
b0 ]"
b0 \"
b0 ["
b1 Z"
b0 Y"
b0 X"
b10001 W"
b11000010000011 T"
b0 S"
b0 R"
b0 Q"
b10011 P"
b11000010000011 O"
b0 N"
b0 M"
b0 L"
b0 K"
b0 J"
b0 I"
b0 H"
b0 G"
b0 F"
b0 E"
b0 D"
b0 C"
b0 B"
b0 A"
b0 @"
b0 ?"
b0 >"
0="
0<"
0;"
0:"
09"
08"
b0 7"
b0 6"
b0 5"
b0 4"
03"
b0 2"
b0 1"
b0 0"
b0 /"
b0 ."
b0 -"
b0 ,"
b0 +"
b0 *"
b0 )"
b0 ("
b0 '"
b10 &"
b1 ""
b0 !"
b0 ~
b0 }
b0 |
b10011 {
b0 z
b0 y
b10000 x
b0 w
b0 v
b0 u
b0 t
b0 s
b0 r
b0 q
b0 p
b0 o
b0 n
b0 m
b0 l
b0 k
b0 j
b0 i
b0 h
1g
b0 f
b0 e
b0 d
b0 c
0b
0a
b0 `
b100 _
b0 ^
b0 ]
b0 \
0[
0Z
0Y
b0 X
0W
b0 V
0U
b0 T
b0 S
b0 R
b0 Q
1P
0O
b0 N
1M
0L
b0 K
b10011 J
0I
0H
0G
b10011 F
b0 E
0D
b0 C
b0 B
1A
b0 @
b0 ?
b0 >
b0 =
b0 <
b0 ;
b11000010000011 :
b0 9
08
b0 7
06
05
04
b0 3
b1 2
01
b0 0
0/
b0 .
0-
b0 ,
b0 +
0*
b0 )
0(
0'
0&
b0 %
b0 $
1#
0"
b0 !
$end
#5000
b10000 x
b100000 j"
1"
#10000
0"
#15000
b10000 x
b100000 j"
1"
#20000
0"
#25000
b10000 x
b100000 j"
1"
#30000
0"
#35000
b10000 x
b100000 j"
1"
#40000
0"
#45000
b100000000011000100000011 :
b100000000011000100000011 O"
b100000000011000100000011 T"
1H
1I
1M
1A
b1 C
b1 ?"
b1 S"
b1 l"
b100000000000 o"
b11 y
b11 {
b11 F
b1 B
b1 v
b100 R"
b1000 b"
b1 +
b1 ]"
1/
1U
1b
1D
b11000010000011 J
b11000010000011 P"
b11000010000011 k"
b100 9
b100 u
b100 N"
b100 a"
b1 $
0#
1"
#50000
0"
#55000
b111110010011 :
b111110010011 O"
b111110010011 T"
b1000 K
b1000 E"
b1000 m"
b10 S"
b10 C
b10 ?"
b1000 =
b1000 5"
b1000 A"
b1000 e"
b10 v
b1000 R"
b1000 n"
b10 l"
b10 o"
b10 B
b1000 ;
b1100 b"
b1000 9
b1000 u
b1000 N"
b1000 a"
b100000000011000100000011 J
b100000000011000100000011 P"
b100000000011000100000011 k"
b1100 _"
b100 E
b100 D"
b100 Q"
b1 V
b1 )"
b1 7"
b1 I"
1Z
1[
1W
11
b10 $
1"
#60000
0"
#65000
b0 K
b0 E"
b0 m"
b101000000000001000010011 :
b101000000000001000010011 O"
b101000000000001000010011 T"
0P
b1000 c
b1000 s
b1000 '"
1M
0H
0I
1A
b11111 C
b11111 ?"
b0 =
b0 5"
b0 A"
b0 e"
b11 S"
b1000 e
b1000 m
b1 t
b1000 _
b1000 `"
b0 n"
b11111 l"
b100000011110 o"
b0 y
b10011 {
b10011 F
b11111 B
b0 ;
b11 v
b1100 R"
b10000 b"
1*
b1 3
b1 +"
b1 -"
b1 6"
b1 Y"
15
16
b1000 \
b1000 G"
b10 V
b10 )"
b10 7"
b10 I"
b1000 R
b1000 /"
b1000 L"
b1100 `
b100 X
b100 w
b100 H"
b111110010011 J
b111110010011 P"
b111110010011 k"
b1000 _"
b1000 E
b1000 D"
b1000 Q"
b1100 9
b1100 u
b1100 N"
b1100 a"
b11 $
1"
#70000
0"
#75000
b1000000000000001010010011 :
b1000000000000001010010011 O"
b1000000000000001010010011 T"
b1010 K
b1010 E"
b1010 m"
b100 S"
b100 C
b100 ?"
b1010 =
b1010 5"
b1010 A"
b1010 e"
1P
b0 c
b0 s
b0 '"
b1 !"
b100 v
b10000 R"
b1010 n"
b100 l"
b100 o"
b100 B
b1010 ;
b10100 b"
b0 e
b0 m
b10 t
b1100 _
b1100 `"
b1000 }
b1 )
b1 g"
b10000 9
b10000 u
b10000 N"
b10000 a"
b101000000000001000010011 J
b101000000000001000010011 P"
b101000000000001000010011 k"
b10110 _"
b1100 E
b1100 D"
b1100 Q"
b0 \
b0 G"
b11111 V
b11111 )"
b11111 7"
b11111 I"
b0 R
b0 /"
b0 L"
b1000 `
b1000 X
b1000 w
b1000 H"
0Z
0[
0/
b10 3
b10 +"
b10 -"
b10 6"
b10 Y"
b1000 7
b1000 *"
b1000 X"
b1 ,
b1 ."
b1 \"
b1 f"
1-
b100 $
1"
#80000
0"
#85000
b10000 K
b10000 E"
b10000 m"
b1000001000000110110011 :
b1000001000000110110011 O"
b1000001000000110110011 T"
b0 !"
0P
b1010 c
b1010 s
b1010 '"
b101 C
b101 ?"
b10000 =
b10000 5"
b10000 A"
b10000 e"
b101 S"
b0 }
b1010 e
b1010 m
b11 t
b10000 _
b10000 `"
b10000 n"
b101 l"
b100000000100 o"
b101 B
b10000 ;
b101 v
b10100 R"
b11000 b"
b10 ,
b10 ."
b10 \"
b10 f"
b1000 .
b1000 ["
1/
b11111 3
b11111 +"
b11111 -"
b11111 6"
b11111 Y"
b0 7
b0 *"
b0 X"
05
06
b1010 \
b1010 G"
b100 V
b100 )"
b100 7"
b100 I"
b1010 R
b1010 /"
b1010 L"
b10110 `
b1100 X
b1100 w
b1100 H"
b1000000000000001010010011 J
b1000000000000001010010011 P"
b1000000000000001010010011 k"
b100000 _"
b10000 E
b10000 D"
b10000 Q"
b10100 9
b10100 u
b10100 N"
b10100 a"
b101 $
1"
#90000
0"
#95000
b1100011000111110010011 :
b1100011000111110010011 O"
b1100011000111110010011 T"
b10 K
b10 E"
b10 m"
b1 <
b1 B"
b1 h"
b1 ?
b1 C"
b1 i"
b110 S"
0M
1A
b11 C
b11 ?"
b10 =
b10 5"
b10 A"
b10 e"
b1 @
b1 4"
b1 @"
b1 d"
b10000 c
b10000 s
b10000 '"
b1 !"
b110 v
b11000 R"
b10 n"
b11 l"
b100000000010 o"
b110011 {
b110011 F
b11 B
b10 ;
b1 >
b11100 b"
b10000 e
b10000 m
b100 t
b10100 _
b10100 `"
b1010 }
b0 )
b0 g"
b11000 9
b11000 u
b11000 N"
b11000 a"
b1000001000000110110011 J
b1000001000000110110011 P"
b1000001000000110110011 k"
b10110 _"
b10100 E
b10100 D"
b10100 Q"
b10000 \
b10000 G"
b101 V
b101 )"
b101 7"
b101 I"
b10000 R
b10000 /"
b10000 L"
b100000 `
b10000 X
b10000 w
b10000 H"
0/
b100 3
b100 +"
b100 -"
b100 6"
b100 Y"
b1010 7
b1010 *"
b1010 X"
b11111 ,
b11111 ."
b11111 \"
b11111 f"
b0 .
b0 ["
0-
b110 $
1"
#100000
0"
#105000
b0 2
b0 ""
b0 Z"
b11 K
b11 E"
b11 m"
b0 <
b0 B"
b0 h"
b0 ?
b0 C"
b0 i"
b10000000010010011 :
b10000000010010011 O"
b10000000010010011 T"
b10 !"
b10 c
b10 s
b10 '"
1M
1A
b11111 C
b11111 ?"
b11 =
b11 5"
b11 A"
b11 e"
b11 @
b11 4"
b11 @"
b11 d"
b111 S"
b1010 )
b1010 g"
b10000 }
b1 k
b1 ("
b1 j
b1 %
b1 l
b1 i
b101 t
b11000 _
b11000 `"
b1 e
b1 m
b11 n"
b11111 l"
b100000011110 o"
b10011 {
b10011 F
b11111 B
b11 ;
b11 >
b111 v
b11100 R"
b100000 b"
b100 ,
b100 ."
b100 \"
b100 f"
b1010 .
b1010 ["
b101 3
b101 +"
b101 -"
b101 6"
b101 Y"
b10000 7
b10000 *"
b10000 X"
b10 \
b10 G"
b1 Q
b1 M"
b1 S
b1 K"
b11 V
b11 )"
b11 7"
b11 I"
b10 R
b10 /"
b10 L"
b1 T
b1 0"
b1 J"
b10110 `
b10100 X
b10100 w
b10100 H"
0b
b1100011000111110010011 J
b1100011000111110010011 P"
b1100011000111110010011 k"
b11011 _"
b11000 E
b11000 D"
b11000 Q"
b11100 9
b11100 u
b11100 N"
b11100 a"
b111 $
1"
#110000
0"
#115000
b11000000100010011 :
b11000000100010011 O"
b11000000100010011 T"
b0 K
b0 E"
b0 m"
b1 ?
b1 C"
b1 i"
b1 2
b1 ""
b1 Z"
b1000 S"
b1 C
b1 ?"
b0 =
b0 5"
b0 A"
b0 e"
b10 @
b10 4"
b10 @"
b10 d"
b0 !"
b101 c
b101 s
b101 '"
b1000 v
b100000 R"
b0 n"
b1 l"
b100000000000 o"
b1 B
b0 ;
b10 >
b100100 b"
b110 t
b11100 _
b11100 `"
b11 e
b11 m
b10 }
b0 k
b0 ("
b10 %
b10 l
b10 i
b10 j
b10 ]
b10 2"
b10 ^
b10 1"
b10000 )
b10000 g"
b100000 9
b100000 u
b100000 N"
b100000 a"
b10000000010010011 J
b10000000010010011 P"
b10000000010010011 k"
b11100 _"
b11100 E
b11100 D"
b11100 Q"
b11 \
b11 G"
b0 Q
b0 M"
b0 S
b0 K"
b11111 V
b11111 )"
b11111 7"
b11111 I"
b11 R
b11 /"
b11 L"
b11 T
b11 0"
b11 J"
b11011 `
b11000 X
b11000 w
b11000 H"
1b
b11 3
b11 +"
b11 -"
b11 6"
b11 Y"
b1 0
b1 ~
b1 ,"
b10 7
b10 *"
b10 X"
b101 ,
b101 ."
b101 \"
b101 f"
b0 +
b0 ]"
b10000 .
b10000 ["
b1000 $
1"
#120000
0"
#125000
b0 ?
b0 C"
b0 i"
b101001010010000000100011 :
b101001010010000000100011 O"
b101001010010000000100011 T"
b1 c
b1 s
b1 '"
b10 C
b10 ?"
b11 @
b11 4"
b11 @"
b11 d"
b1001 S"
b10 )
b10 g"
b101 }
b0 j
b0 e
b0 m
b1 %
b1 l
b1 i
b0 ]
b0 2"
b0 ^
b0 1"
b111 t
b100000 _
b100000 `"
b10 l"
b10 o"
b10 B
b11 >
b1001 v
b100100 R"
b101000 b"
b11 ,
b11 ."
b11 \"
b11 f"
b1 +
b1 ]"
b10 .
b10 ["
b11111 3
b11111 +"
b11111 -"
b11111 6"
b11111 Y"
b0 0
b0 ~
b0 ,"
b101 7
b101 *"
b101 X"
b0 \
b0 G"
b1 S
b1 K"
b1 V
b1 )"
b1 7"
b1 I"
b0 R
b0 /"
b0 L"
b10 T
b10 0"
b10 J"
b11100 `
b11100 X
b11100 w
b11100 H"
b11000000100010011 J
b11000000100010011 P"
b11000000100010011 k"
b100000 _"
b100000 E
b100000 D"
b100000 Q"
b100100 9
b100100 u
b100100 N"
b100100 a"
b1001 $
1"
#130000
0"
#135000
13"
1O
b100000101000001010010011 :
b100000101000001010010011 O"
b100000101000001010010011 T"
1="
b1 <
b1 B"
b1 h"
b1010 S"
1G
1M
0A
b0 C
b0 ?"
b10 =
b10 5"
b10 A"
b10 e"
b101 @
b101 4"
b101 @"
b101 d"
1P
b0 c
b0 s
b0 '"
b1010 v
b101000 R"
b1010 n"
b0 l"
b0 o"
b10 y
b100011 {
18
b100011 F
b0 B
b1010 ;
b1010 >
b101000 b"
b1000 t
b100100 _
b100100 `"
b1 }
b0 %
b0 l
b0 i
b101 )
b101 g"
b10000 ?
b10000 C"
b10000 i"
b101000 9
b101000 u
b101000 N"
b101000 a"
b101001010010000000100011 J
b101001010010000000100011 P"
b101001010010000000100011 k"
b100100 _"
b100100 E
b100100 D"
b100100 Q"
b0 S
b0 K"
b10 V
b10 )"
b10 7"
b10 I"
b11 T
b11 0"
b11 J"
b100000 `
b100000 X
b100000 w
b100000 H"
b1 3
b1 +"
b1 -"
b1 6"
b1 Y"
b1 7
b1 *"
b1 X"
b11111 ,
b11111 ."
b11111 \"
b11111 f"
b101 .
b101 ["
b1010 $
1"
#140000
0"
#145000
0P
b10000 c
b10000 s
b10000 '"
b101100 b"
03"
0O
b1 )
b1 g"
b0 }
b10000 %
b10000 l
b10000 i
b10 ]
b10 2"
b1001 t
b101000 _
b101000 `"
0="
b10 h
b1 ,
b1 ."
b1 \"
b1 f"
b1 .
b1 ["
1/
b10 3
b10 +"
b10 -"
b10 6"
b10 Y"
b0 7
b0 *"
b0 X"
b1 Q
b1 M"
b10000 S
b10000 K"
b0 V
b0 )"
b0 7"
b0 I"
b10 R
b10 /"
b10 L"
b101 T
b101 0"
b101 J"
b100100 `
b100100 X
b100100 w
b100100 H"
0U
1Y
b101 !
b101 f
b101 c"
b1011 $
1"
#150000
0"
#155000
b1111110111111100110011 :
b1111110111111100110011 O"
b1111110111111100110011 T"
b0 <
b0 B"
b0 h"
b0 2
b0 ""
b0 Z"
b1011 S"
b1000 K
b1000 E"
b1000 m"
1A
1M
0G
b1000 =
b1000 5"
b1000 A"
b1000 e"
b101 C
b101 ?"
b10 !"
b1011 v
b101100 R"
b1000 n"
b101 l"
b100000000100 o"
b0 y
b10011 {
08
b10011 F
b101 B
b1000 ;
b101 >
b110000 b"
b10000 }
b1 h
b1 ]
b1 2"
b0 )
b0 g"
b101100 9
b101100 u
b101100 N"
b101100 a"
b100000101000001010010011 J
b100000101000001010010011 P"
b100000101000001010010011 k"
b110000 _"
b101000 E
b101000 D"
b101000 Q"
0/
b0 3
b0 +"
b0 -"
b0 6"
b0 Y"
b10000 7
b10000 *"
b10000 X"
14
01
b10 ,
b10 ."
b10 \"
b10 f"
b0 .
b0 ["
b1100 $
1"
#160000
0"
#165000
b11 K
b11 E"
b11 m"
b10 <
b10 B"
b10 h"
b0 ?
b0 C"
b0 i"
b1111101110111000110011 :
b1111101110111000110011 O"
b1111101110111000110011 T"
b11000 c
b11000 s
b11000 '"
b10 N
b10 |
b10 >"
0M
1A
b11110 C
b11110 ?"
b11 =
b11 5"
b11 A"
b11 e"
b11110 @
b11110 4"
b11110 @"
b11110 d"
b1100 S"
b10000 )
b10000 g"
b1000 e
b1000 m
b0 ]
b0 2"
b1010 t
b101100 _
b101100 `"
b0 h
b11 n"
b11110 l"
b11110 o"
b111 y
b110011 {
b110011 F
b11110 B
b11 ;
b11110 >
b1100 v
b110000 R"
b110100 b"
b0 ,
b0 ."
b0 \"
b0 f"
b0 +
b0 ]"
b10000 .
b10000 ["
0*
b1000 \
b1000 G"
b0 Q
b0 M"
b101 V
b101 )"
b101 7"
b101 I"
b1000 R
b1000 /"
b1000 L"
b110000 `
b101000 X
b101000 w
b101000 H"
1U
0Y
b1111110111111100110011 J
b1111110111111100110011 P"
b1111110111111100110011 k"
b101111 _"
b101100 E
b101100 D"
b101100 Q"
b110000 9
b110000 u
b110000 N"
b110000 a"
b1101 $
1"
#170000
0"
#175000
b1000000010011111000110110110011 :
b1000000010011111000110110110011 O"
b1000000010011111000110110110011 T"
b1101 S"
1A
b11 N
b11 |
b11 >"
b11100 C
b11100 ?"
b11101 @
b11101 4"
b11101 @"
b11101 d"
b11 !"
b1101 v
b110100 R"
b11100 l"
b11100 o"
b110 y
b11100 B
b11101 >
b111000 b"
b1011 t
b110000 _
b110000 `"
b10 e
b10 m
1P
b0 c
b0 s
b0 '"
b11000 }
b10 k
b10 ("
b0 %
b0 l
b0 i
b10 j
b110100 9
b110100 u
b110100 N"
b110100 a"
b1111101110111000110011 J
b1111101110111000110011 P"
b1111101110111000110011 k"
b110011 _"
b110000 E
b110000 D"
b110000 Q"
b11 \
b11 G"
b10 Q
b10 M"
b0 S
b0 K"
b11110 V
b11110 )"
b11110 7"
b11110 I"
b11 R
b11 /"
b11 L"
b11110 T
b11110 0"
b11110 J"
b101111 `
b101100 X
b101100 w
b101100 H"
0b
b10 d
b10 r
b10 F"
b101 3
b101 +"
b101 -"
b101 6"
b101 Y"
b11000 7
b11000 *"
b11000 X"
04
11
b1110 $
1"
#180000
0"
#185000
b1 2
b1 ""
b1 Z"
b10000000100 K
b10000000100 E"
b10000000100 m"
b1010 <
b1010 B"
b1010 h"
b101 ?
b101 C"
b101 i"
b11011000010001100011 :
b11011000010001100011 O"
b11011000010001100011 T"
b0 !"
1A
b1 N
b1 |
b1 >"
b11011 C
b11011 ?"
b100 =
b100 5"
b100 A"
b100 e"
b11111 @
b11111 4"
b11111 @"
b11111 d"
b1110 S"
b11000 )
b11000 g"
b0 }
b1100 t
b110100 _
b110100 `"
0P
b10 c
b10 s
b10 '"
b10000000100 n"
b10000011011 l"
b110000011010 o"
b100000 z
b0 y
b11011 B
b100 ;
b11111 >
b1110 v
b111000 R"
b111100 b"
b101 ,
b101 ."
b101 \"
b101 f"
b11000 .
b11000 ["
1*
1/
b11110 3
b11110 +"
b11110 -"
b11110 6"
b11110 Y"
b10 0
b10 ~
b10 ,"
b0 7
b0 *"
b0 X"
b11100 V
b11100 )"
b11100 7"
b11100 I"
b11101 T
b11101 0"
b11101 J"
b110011 `
b110000 X
b110000 w
b110000 H"
b11 d
b11 r
b11 F"
b1000000010011111000110110110011 J
b1000000010011111000110110110011 P"
b1000000010011111000110110110011 k"
b10000111000 _"
b110100 E
b110100 D"
b110100 Q"
b111000 9
b111000 u
b111000 N"
b111000 a"
b1111 $
1"
#190000
0"
