pipelined_fibo.vcd
$date
	Wed Jun 25 10:51:52 2025
$end
$version
	Icarus Verilog
$end
$timescale
	1ps
$end
$scope module pipeline_cpu_tb $end
$var wire 64 ! debug_out [63:0] $end
$var parameter 32 " CLK_PERIOD $end
$var reg 1 # clk $end
$var reg 1 $ rst $end
$var integer 32 % cycle_count [31:0] $end
$scope module dut $end
$var wire 1 # clk $end
$var wire 64 & ex_alu_a_input [63:0] $end
$var wire 1 ' ex_branch_taken $end
$var wire 1 ( ex_prediction_incorrect $end
$var wire 64 ) ex_store_data [63:0] $end
$var wire 1 * flush_pipeline $end
$var wire 1 + hazard_stall $end
$var wire 1 , raw_hazard_detected $end
$var wire 1 $ rst $end
$var wire 64 - wb_write_data [63:0] $end
$var wire 1 . wb_reg_write $end
$var wire 64 / wb_read_data [63:0] $end
$var wire 5 0 wb_rd [4:0] $end
$var wire 1 1 wb_mem_to_reg $end
$var wire 64 2 wb_alu_result [63:0] $end
$var wire 1 3 mem_zero $end
$var wire 64 4 mem_write_data [63:0] $end
$var wire 1 5 mem_reg_write $end
$var wire 64 6 mem_read_data [63:0] $end
$var wire 5 7 mem_rd [4:0] $end
$var wire 1 8 mem_mem_write $end
$var wire 1 9 mem_mem_to_reg $end
$var wire 1 : mem_mem_read $end
$var wire 64 ; mem_alu_result [63:0] $end
$var wire 64 < if_pc [63:0] $end
$var wire 32 = if_instruction [31:0] $end
$var wire 64 > id_rs2_data [63:0] $end
$var wire 5 ? id_rs2 [4:0] $end
$var wire 64 @ id_rs1_data [63:0] $end
$var wire 5 A id_rs1 [4:0] $end
$var wire 1 B id_reg_write $end
$var wire 5 C id_rd [4:0] $end
$var wire 1 D id_prediction $end
$var wire 64 E id_pc [63:0] $end
$var wire 1 F id_mem_write $end
$var wire 1 G id_mem_to_reg $end
$var wire 1 H id_mem_read $end
$var wire 32 I id_instruction [31:0] $end
$var wire 64 J id_imm [63:0] $end
$var wire 1 K id_branch $end
$var wire 1 L id_alu_src $end
$var wire 3 M id_alu_control [2:0] $end
$var wire 1 N ex_zero $end
$var wire 64 O ex_rs2_data [63:0] $end
$var wire 5 P ex_rs2 [4:0] $end
$var wire 64 Q ex_rs1_data [63:0] $end
$var wire 5 R ex_rs1 [4:0] $end
$var wire 1 S ex_reg_write $end
$var wire 5 T ex_rd [4:0] $end
$var wire 1 U ex_prediction $end
$var wire 64 V ex_pc [63:0] $end
$var wire 1 W ex_mem_write $end
$var wire 1 X ex_mem_to_reg $end
$var wire 1 Y ex_mem_read $end
$var wire 32 Z ex_instruction [31:0] $end
$var wire 64 [ ex_imm [63:0] $end
$var wire 2 \ ex_forward_b [1:0] $end
$var wire 2 ] ex_forward_a [1:0] $end
$var wire 64 ^ ex_corrected_pc [63:0] $end
$var wire 64 _ ex_branch_target [63:0] $end
$var wire 1 ` ex_branch $end
$var wire 1 a ex_alu_src $end
$var wire 64 b ex_alu_result [63:0] $end
$var wire 3 c ex_alu_control [2:0] $end
$var wire 64 d ex_alu_b_input [63:0] $end
$var wire 64 e debug_out [63:0] $end
$var wire 1 f branch_prediction $end
$var reg 1 g ex_branch_condition_met $end
$var reg 64 h ex_forwarded_a [63:0] $end
$var reg 64 i ex_forwarded_b [63:0] $end
$var integer 32 j cycle_count [31:0] $end
$scope module alu_inst $end
$var wire 64 k a [63:0] $end
$var wire 64 l b [63:0] $end
$var wire 2 m forward_a [1:0] $end
$var wire 2 n forward_b [1:0] $end
$var wire 64 o mem_result [63:0] $end
$var wire 64 p wb_result [63:0] $end
$var wire 1 N zero $end
$var wire 3 q alu_control [2:0] $end
$var reg 64 r result [63:0] $end
$upscope $end
$scope module bp_inst $end
$var wire 1 ' branch_taken $end
$var wire 1 # clk $end
$var wire 1 f prediction $end
$var wire 1 $ rst $end
$var wire 4 s resolved_index [3:0] $end
$var wire 64 t pc [63:0] $end
$var wire 4 u index [3:0] $end
$var wire 1 ` branch_resolved $end
$var wire 64 v branch_pc [63:0] $end
$scope begin $ivl_for_loop0 $end
$var integer 32 w i [31:0] $end
$upscope $end
$upscope $end
$scope module cu_inst $end
$var wire 3 x funct3 [2:0] $end
$var wire 7 y funct7 [6:0] $end
$var wire 7 z opcode [6:0] $end
$var reg 3 { alu_control [2:0] $end
$var reg 1 L alu_src $end
$var reg 1 K branch $end
$var reg 1 H mem_read $end
$var reg 1 G mem_to_reg $end
$var reg 1 F mem_write $end
$var reg 1 B reg_write $end
$upscope $end
$scope module data_mem_inst $end
$var wire 32 | addr [31:0] $end
$var wire 1 # clk $end
$var wire 1 $ rst $end
$var wire 32 } word_addr [31:0] $end
$var wire 1 8 wr_enable $end
$var wire 64 ~ wr_data [63:0] $end
$var wire 1 : rd_enable $end
$var wire 64 !" rd_data [63:0] $end
$var parameter 32 "" mem_size $end
$var parameter 176 #" rom_file $end
$var parameter 32 $" rom_size $end
$var integer 32 %" i [31:0] $end
$upscope $end
$scope module ex_mem_reg_inst $end
$var wire 64 &" alu_result_in [63:0] $end
$var wire 1 # clk $end
$var wire 1 $ rst $end
$var wire 64 '" wr_data_in [63:0] $end
$var wire 1 N zero_in $end
$var wire 1 S reg_wr_in $end
$var wire 5 (" rd_addr_in [4:0] $end
$var wire 1 W mem_wr_in $end
$var wire 1 X mem_to_reg_in $end
$var wire 1 Y mem_rd_in $end
$var reg 64 )" alu_result_out [63:0] $end
$var reg 1 : mem_rd_out $end
$var reg 1 9 mem_to_reg_out $end
$var reg 1 8 mem_wr_out $end
$var reg 5 *" rd_addr_out [4:0] $end
$var reg 1 5 reg_wr_out $end
$var reg 64 +" wr_data_out [63:0] $end
$var reg 1 3 zero_out $end
$upscope $end
$scope module fu_inst $end
$var wire 5 ," mem_rd [4:0] $end
$var wire 1 5 mem_reg_wr $end
$var wire 1 . wb_reg_wr $end
$var wire 5 -" wb_rd [4:0] $end
$var wire 5 ." ex_rs2 [4:0] $end
$var wire 5 /" ex_rs1 [4:0] $end
$var reg 2 0" forward_a [1:0] $end
$var reg 2 1" forward_b [1:0] $end
$upscope $end
$scope module id_ex_reg_inst $end
$var wire 3 2" alu_control_in [2:0] $end
$var wire 1 3" alu_src_in $end
$var wire 1 4" branch_in $end
$var wire 1 # clk $end
$var wire 1 * flush $end
$var wire 1 5" mem_rd_in $end
$var wire 1 6" mem_to_reg_in $end
$var wire 1 7" mem_wr_in $end
$var wire 5 8" rd_addr_in [4:0] $end
$var wire 1 9" reg_wr_in $end
$var wire 5 :" rs1_addr_in [4:0] $end
$var wire 5 ;" rs2_addr_in [4:0] $end
$var wire 1 $ rst $end
$var wire 64 <" rs2_data_in [63:0] $end
$var wire 64 =" rs1_data_in [63:0] $end
$var wire 1 D prediction_in $end
$var wire 64 >" pc_in [63:0] $end
$var wire 32 ?" instr_in [31:0] $end
$var wire 64 @" imm_in [63:0] $end
$var reg 3 A" alu_control_out [2:0] $end
$var reg 1 a alu_src_out $end
$var reg 1 ` branch_out $end
$var reg 64 B" imm_out [63:0] $end
$var reg 32 C" instr_out [31:0] $end
$var reg 1 Y mem_rd_out $end
$var reg 1 X mem_to_reg_out $end
$var reg 1 W mem_wr_out $end
$var reg 64 D" pc_out [63:0] $end
$var reg 1 U prediction_out $end
$var reg 5 E" rd_addr_out [4:0] $end
$var reg 1 S reg_wr_out $end
$var reg 5 F" rs1_addr_out [4:0] $end
$var reg 64 G" rs1_data_out [63:0] $end
$var reg 5 H" rs2_addr_out [4:0] $end
$var reg 64 I" rs2_data_out [63:0] $end
$upscope $end
$scope module if_id_reg_inst $end
$var wire 1 # clk $end
$var wire 1 * flush $end
$var wire 1 f prediction_in $end
$var wire 1 $ rst $end
$var wire 1 + stall $end
$var wire 64 J" pc_in [63:0] $end
$var wire 32 K" instr_in [31:0] $end
$var reg 32 L" instr_out [31:0] $end
$var reg 64 M" pc_out [63:0] $end
$var reg 1 D prediction_out $end
$upscope $end
$scope module instr_mem_inst $end
$var wire 32 N" address [31:0] $end
$var wire 32 O" word_addr [31:0] $end
$var wire 32 P" instruction [31:0] $end
$var parameter 176 Q" mem_file $end
$var parameter 32 R" mem_size $end
$var integer 32 S" i [31:0] $end
$upscope $end
$scope module mem_wb_reg_inst $end
$var wire 64 T" alu_result_in [63:0] $end
$var wire 1 # clk $end
$var wire 1 9 mem_to_reg_in $end
$var wire 5 U" rd_addr_in [4:0] $end
$var wire 64 V" rd_data_in [63:0] $end
$var wire 1 5 reg_wr_in $end
$var wire 1 $ rst $end
$var reg 64 W" alu_result_out [63:0] $end
$var reg 1 1 mem_to_reg_out $end
$var reg 5 X" rd_addr_out [4:0] $end
$var reg 64 Y" rd_data_out [63:0] $end
$var reg 1 . reg_wr_out $end
$upscope $end
$scope module pc_logic_inst $end
$var wire 1 ' branch_taken $end
$var wire 64 Z" branch_target [63:0] $end
$var wire 1 # clk $end
$var wire 64 [" corrected_pc [63:0] $end
$var wire 1 ( prediction_incorrect $end
$var wire 1 $ rst $end
$var wire 1 + stall $end
$var reg 64 \" pc [63:0] $end
$var reg 64 ]" pc_next [63:0] $end
$upscope $end
$scope module rf_inst $end
$var wire 1 # clk $end
$var wire 64 ^" debug_output [63:0] $end
$var wire 5 _" rd_addr1 [4:0] $end
$var wire 5 `" rd_addr2 [4:0] $end
$var wire 1 $ rst $end
$var wire 5 a" wr_addr [4:0] $end
$var wire 64 b" wr_data [63:0] $end
$var wire 1 . wr_enable $end
$var wire 64 c" x5_data [63:0] $end
$var wire 64 d" rd_data2 [63:0] $end
$var wire 64 e" rd_data1 [63:0] $end
$scope begin $ivl_for_loop1 $end
$var integer 32 f" i [31:0] $end
$upscope $end
$scope begin $ivl_for_loop2 $end
$var integer 32 g" i [31:0] $end
$upscope $end
$upscope $end
$scope module sign_ext_inst $end
$var wire 32 h" instr [31:0] $end
$var wire 7 i" opcode [6:0] $end
$var wire 64 j" imm_s [63:0] $end
$var wire 64 k" imm_i [63:0] $end
$var wire 64 l" imm_b [63:0] $end
$var reg 64 m" imm_out [63:0] $end
$upscope $end
$upscope $end
$scope begin memory_dump $end
$var integer 32 n" i [31:0] $end
$upscope $end
$scope begin verification $end
$var integer 32 o" correct_count [31:0] $end
$upscope $end
$upscope $end
$enddefinitions $end
$comment Show the parameter values. $end
$dumpall
b10100 R"
b1110000011100100110111101100111011100100110000101101101011100110010111101100110011010010110001001101111010111110110001101101111011011010111000000101110011011010110010101101101 Q"
b10 $"
b1110000011100100110111101100111011100100110000101101101011100110010111101100110011010010110001001101111010111110110010001100001011101000110000100101110011011010110010101101101 #"
b100000000 ""
b1010 "
$end
#0
$dumpvars
bx o"
bx n"
b0 m"
b0 l"
b0 k"
b0 j"
b10011 i"
b10011 h"
b0 g"
b100000 f"
b0 e"
b0 d"
b0 c"
b0 b"
b0 a"
b0 `"
b0 _"
b0 ^"
b100 ]"
b0 \"
b100 ["
b0 Z"
b0 Y"
b0 X"
b0 W"
b1 V"
b0 U"
b0 T"
b10000 S"
b11000010000011 P"
b0 O"
b0 N"
b0 M"
b10011 L"
b11000010000011 K"
b0 J"
b0 I"
b0 H"
b0 G"
b0 F"
b0 E"
b0 D"
b10011 C"
b0 B"
b0 A"
b0 @"
b10011 ?"
b0 >"
b0 ="
b0 <"
b0 ;"
b0 :"
19"
b0 8"
07"
06"
05"
04"
13"
b0 2"
b0 1"
b0 0"
b0 /"
b0 ."
b0 -"
b0 ,"
b0 +"
b0 *"
b0 )"
b0 ("
b0 '"
b0 &"
b10 %"
b1 !"
b0 ~
b0 }
b0 |
b0 {
b10011 z
b0 y
b0 x
b10000 w
b0 v
b0 u
b0 t
b0 s
b0 r
b0 q
b0 p
b0 o
b0 n
b0 m
b0 l
b0 k
b0 j
b0 i
b0 h
0g
1f
b0 e
b0 d
b0 c
b0 b
0a
0`
b0 _
b100 ^
b0 ]
b0 \
b0 [
b10011 Z
0Y
0X
0W
b0 V
0U
b0 T
0S
b0 R
b0 Q
b0 P
b0 O
1N
b0 M
1L
0K
b0 J
b10011 I
0H
0G
0F
b0 E
0D
b0 C
1B
b0 A
b0 @
b0 ?
b0 >
b11000010000011 =
b0 <
b0 ;
0:
09
08
b0 7
b1 6
05
b0 4
03
b0 2
01
b0 0
b0 /
0.
b0 -
0,
0+
0*
b0 )
0(
0'
b0 &
b0 %
1$
0#
b0 !
$end
#5000
b10000 w
b100000 g"
1#
#10000
0#
#15000
b10000 w
b100000 g"
1#
#20000
0#
0$
#25000
16"
15"
b100000000011000100000011 =
b100000000011000100000011 K"
b100000000011000100000011 P"
1G
1H
1L
1B
b1 O"
b11 i"
b1 j"
b100000000000 l"
b11 x
b11 z
b1 C
b1 8"
b1 u
b100 N"
b1000 ]"
b1 /
b1 Y"
13
1S
1a
1D
b11000010000011 I
b11000010000011 ?"
b11000010000011 L"
b11000010000011 h"
b100 <
b100 t
b100 J"
b100 \"
b1 j
b1 %
1#
#30000
0#
#35000
b111110010011 =
b111110010011 K"
b111110010011 P"
19"
15"
16"
13"
b10 O"
b1000 J
b1000 @"
b1000 m"
0+
0,
b10 u
b1000 N"
b1100 ]"
b1000 k"
b10 j"
b10 l"
b10 C
b10 8"
b1000 ?
b1000 ;"
b1000 `"
b1000 <
b1000 t
b1000 J"
b1000 \"
b100000000011000100000011 I
b100000000011000100000011 ?"
b100000000011000100000011 L"
b100000000011000100000011 h"
b100 E
b100 >"
b100 M"
b11000010000011 Z
b11000010000011 C"
b1 T
b1 ("
b1 E"
1X
1Y
1U
15
b10 %
b10 j
1#
#40000
0#
#45000
06"
05"
b101000000000001000010011 =
b101000000000001000010011 K"
b101000000000001000010011 P"
0N
b1000 b
b1000 r
b1000 &"
b0 J
b0 @"
b0 m"
1L
0G
0H
1B
b11 O"
b1000 d
b1000 l
b1 s
b1000 ^
b1000 ["
b10011 i"
b0 k"
b11111 j"
b100000011110 l"
b0 x
b10011 z
b11111 C
b11111 8"
b0 ?
b0 ;"
b0 `"
b11 u
b1100 N"
b10000 ]"
1.
b1 7
b1 *"
b1 ,"
b1 U"
19
1:
b100000000011000100000011 Z
b100000000011000100000011 C"
b1000 [
b1000 B"
b10 T
b10 ("
b10 E"
b1000 P
b1000 ."
b1000 H"
b1100 _
b1100 Z"
b100 V
b100 v
b100 D"
b111110010011 I
b111110010011 ?"
b111110010011 L"
b111110010011 h"
b1000 E
b1000 >"
b1000 M"
b1100 <
b1100 t
b1100 J"
b1100 \"
b11 j
b11 %
1#
#50000
0#
#55000
b1000000000001010010011 =
b1000000000001010010011 K"
b1000000000001010010011 P"
b100 O"
b1010 J
b1010 @"
b1010 m"
1N
b0 b
b0 r
b0 &"
b0 6
b0 !"
b0 V"
b100 u
b10000 N"
b1010 k"
b100 j"
b100 l"
b100 C
b100 8"
b1010 ?
b1010 ;"
b1010 `"
b0 d
b0 l
b10 s
b1100 ^
b1100 ["
b10100 ]"
b1000 }
b1000 |
b1 -
b1 b"
b10000 <
b10000 t
b10000 J"
b10000 \"
b101000000000001000010011 I
b101000000000001000010011 ?"
b101000000000001000010011 L"
b101000000000001000010011 h"
b1100 E
b1100 >"
b1100 M"
b111110010011 Z
b111110010011 C"
b0 [
b0 B"
b11111 T
b11111 ("
b11111 E"
b0 P
b0 ."
b0 H"
b1000 _
b1000 Z"
b1000 V
b1000 v
b1000 D"
0X
0Y
03
b10 7
b10 *"
b10 ,"
b10 U"
b1000 ;
b1000 )"
b1000 T"
b1 0
b1 -"
b1 X"
b1 a"
11
b100 %
b100 j
1#
#60000
0#
#65000
b1000001000000110110011 =
b1000001000000110110011 K"
b1000001000000110110011 P"
b1 6
b1 !"
b1 V"
0N
b1010 b
b1010 r
b1010 &"
b10 J
b10 @"
b10 m"
b101 O"
b0 -
b0 b"
b0 }
b0 |
b1010 d
b1010 l
b11 s
b10000 ^
b10000 ["
b10 k"
b101 j"
b100000000100 l"
b101 C
b101 8"
b10 ?
b10 ;"
b10 `"
b101 u
b10100 N"
b11000 ]"
b10 0
b10 -"
b10 X"
b10 a"
b0 /
b0 Y"
b1000 2
b1000 W"
13
b11111 7
b11111 *"
b11111 ,"
b11111 U"
b0 ;
b0 )"
b0 T"
09
0:
b101000000000001000010011 Z
b101000000000001000010011 C"
b1010 [
b1010 B"
b100 T
b100 ("
b100 E"
b1010 P
b1010 ."
b1010 H"
b10110 _
b10110 Z"
b1100 V
b1100 v
b1100 D"
b1000000000001010010011 I
b1000000000001010010011 ?"
b1000000000001010010011 L"
b1000000000001010010011 h"
b10000 E
b10000 >"
b10000 M"
b10100 <
b10100 t
b10100 J"
b10100 \"
b101 j
b101 %
1#
#70000
0#
#75000
b1100011000111110010011 =
b1100011000111110010011 K"
b1100011000111110010011 P"
03"
b110 O"
0L
1B
b1 @
b1 ="
b1 e"
b10 b
b10 r
b10 &"
b0 6
b0 !"
b0 V"
b110 u
b11000 N"
b110011 i"
b11 j"
b100000000010 l"
b110011 z
b11 C
b11 8"
b1 A
b1 :"
b1 _"
b10 d
b10 l
b100 s
b10100 ^
b10100 ["
b11100 ]"
b1010 }
b1010 |
b11000 <
b11000 t
b11000 J"
b11000 \"
b1000001000000110110011 I
b1000001000000110110011 ?"
b1000001000000110110011 L"
b1000001000000110110011 h"
b10100 E
b10100 >"
b10100 M"
b1000000000001010010011 Z
b1000000000001010010011 C"
b10 [
b10 B"
b101 T
b101 ("
b101 E"
b10 P
b10 ."
b10 H"
b10010 _
b10010 Z"
b10000 V
b10000 v
b10000 D"
03
b100 7
b100 *"
b100 ,"
b100 U"
b1010 ;
b1010 )"
b1010 T"
b11111 0
b11111 -"
b11111 X"
b11111 a"
b1 /
b1 Y"
b0 2
b0 W"
01
b110 %
b110 j
1#
#80000
0#
#85000
09"
1+
1,
03"
b10000000010010011 =
b10000000010010011 K"
b10000000010010011 P"
b1 b
b1 r
b1 &"
b11 J
b11 @"
b11 m"
1L
1B
b0 @
b0 ="
b0 e"
b111 O"
b1010 -
b1010 b"
b10 }
b10 |
b1 &
b1 k
b1 h
b101 s
b11000 ^
b11000 ["
b0 d
b0 l
b10011 i"
b11 k"
b11111 j"
b100000011110 l"
b10011 z
b11111 C
b11111 8"
b11 ?
b11 ;"
b11 `"
b11 A
b11 :"
b11 _"
b111 u
b11100 N"
b11100 ]"
b100 0
b100 -"
b100 X"
b100 a"
b0 /
b0 Y"
b1010 2
b1010 W"
b101 7
b101 *"
b101 ,"
b101 U"
b10 ;
b10 )"
b10 T"
b1000001000000110110011 Z
b1000001000000110110011 C"
b1 Q
b1 G"
b11 T
b11 ("
b11 E"
b1 R
b1 /"
b1 F"
b10110 _
b10110 Z"
b10100 V
b10100 v
b10100 D"
0a
b1100011000111110010011 I
b1100011000111110010011 ?"
b1100011000111110010011 L"
b1100011000111110010011 h"
b11000 E
b11000 >"
b11000 M"
b11100 <
b11100 t
b11100 J"
b11100 \"
b111 j
b111 %
1#
#90000
0#
#95000
19"
13"
b100000 ]"
0+
0,
b10 b
b10 r
b10 &"
b1 6
b1 !"
b1 V"
b1 d
b1 l
b110 s
b11100 ^
b11100 ["
b1 }
b1 |
b1 )
b1 '"
b1 i
b10 \
b10 1"
b10 ]
b10 0"
b10 -
b10 b"
b1100011000111110010011 Z
b1100011000111110010011 C"
b11 [
b11 B"
b0 Q
b0 G"
b11111 T
b11111 ("
b11111 E"
b11 P
b11 ."
b11 H"
b11 R
b11 /"
b11 F"
b11011 _
b11011 Z"
b11000 V
b11000 v
b11000 D"
0S
b11 7
b11 *"
b11 ,"
b11 U"
b1 ;
b1 )"
b1 T"
b101 0
b101 -"
b101 X"
b101 a"
b10 2
b10 W"
b1000 %
b1000 j
1#
#100000
0#
#105000
b11000000100010011 =
b11000000100010011 K"
b11000000100010011 P"
b0 6
b0 !"
b0 V"
b100 b
b100 r
b100 &"
b0 J
b0 @"
b0 m"
b1000 O"
b1 -
b1 b"
b10 }
b10 |
b1 &
b1 k
b1 h
b1 )
b1 '"
b1 i
b1 \
b1 1"
b1 ]
b1 0"
b11 d
b11 l
b0 k"
b1 j"
b100000000000 l"
b1 C
b1 8"
b0 ?
b0 ;"
b0 `"
b10 A
b10 :"
b10 _"
b1000 u
b100000 N"
b100100 ]"
b11 0
b11 -"
b11 X"
b11 a"
b1 /
b1 Y"
b1 2
b1 W"
b11111 7
b11111 *"
b11111 ,"
b11111 U"
b1 4
b1 ~
b1 +"
b10 ;
b10 )"
b10 T"
05
1S
1a
b10000000010010011 I
b10000000010010011 ?"
b10000000010010011 L"
b10000000010010011 h"
b11100 E
b11100 >"
b11100 M"
b100000 <
b100000 t
b100000 J"
b100000 \"
b1001 j
b1001 %
b10 c"
1#
#110000
0#
#115000
b1000101000000000100011 =
b1000101000000000100011 K"
b1000101000000000100011 P"
b1001 O"
b1 @
b1 ="
b1 e"
1N
b0 b
b0 r
b0 &"
b1001 u
b100100 N"
b10 j"
b10 l"
b10 C
b10 8"
b11 A
b11 :"
b11 _"
b0 d
b0 l
b111 s
b100000 ^
b100000 ["
b101000 ]"
b100 }
b100 |
b0 &
b0 k
b0 h
b0 )
b0 '"
b0 i
b10 -
b10 b"
b0 \
b0 1"
b0 ]
b0 0"
b100100 <
b100100 t
b100100 J"
b100100 \"
b11000000100010011 I
b11000000100010011 ?"
b11000000100010011 L"
b11000000100010011 h"
b100000 E
b100000 >"
b100000 M"
b10000000010010011 Z
b10000000010010011 C"
b0 [
b0 B"
b1 T
b1 ("
b1 E"
b0 P
b0 ."
b0 H"
b10 R
b10 /"
b10 F"
b11100 _
b11100 Z"
b11100 V
b11100 v
b11100 D"
b100 ;
b100 )"
b100 T"
15
b11111 0
b11111 -"
b11111 X"
b11111 a"
b0 /
b0 Y"
b10 2
b10 W"
0.
b1010 %
b1010 j
1#
#120000
0#
#125000
03"
1+
1,
07"
09"
b100101000001010010011 =
b100101000001010010011 K"
b100101000001010010011 P"
b1 6
b1 !"
b1 V"
0N
b1 b
b1 r
b1 &"
1F
1L
0B
b10 @
b10 ="
b10 e"
b1010 O"
b100 -
b100 b"
b0 }
b0 |
b1 &
b1 k
b1 h
b1000 s
b100100 ^
b100100 ["
b100011 i"
b10 k"
b0 j"
b0 l"
b100011 z
b0 C
b0 8"
b10 ?
b10 ;"
b10 `"
b101 A
b101 :"
b101 _"
b1010 u
b101000 N"
b101000 ]"
b100 2
b100 W"
1.
13
b1 7
b1 *"
b1 ,"
b1 U"
b0 4
b0 ~
b0 +"
b0 ;
b0 )"
b0 T"
b11000000100010011 Z
b11000000100010011 C"
b1 Q
b1 G"
b10 T
b10 ("
b10 E"
b11 R
b11 /"
b11 F"
b100000 _
b100000 Z"
b100000 V
b100000 v
b100000 D"
b1000101000000000100011 I
b1000101000000000100011 ?"
b1000101000000000100011 L"
b1000101000000000100011 h"
b100100 E
b100100 >"
b100100 M"
b101000 <
b101000 t
b101000 J"
b101000 \"
b1011 j
b1011 %
1#
#130000
0#
#135000
17"
13"
b101100 ]"
0+
0,
b11 b
b11 r
b11 &"
b1001 s
b101000 ^
b101000 ["
b1 d
b1 l
b1 }
b1 |
b10 &
b10 k
b10 h
b1 )
b1 '"
b1 i
b10 \
b10 1"
b0 -
b0 b"
b1000101000000000100011 Z
b1000101000000000100011 C"
b10 Q
b10 G"
b0 T
b0 ("
b0 E"
b10 P
b10 ."
b10 H"
b101 R
b101 /"
b101 F"
b100100 _
b100100 Z"
b100100 V
b100100 v
b100100 D"
0S
0a
03
b10 7
b10 *"
b10 ,"
b10 U"
b1 ;
b1 )"
b1 T"
b1 0
b1 -"
b1 X"
b1 a"
b1 /
b1 Y"
b0 2
b0 W"
b100 !
b100 e
b100 ^"
b1100 %
b1100 j
1#
#140000
0#
#145000
19"
07"
b1111110111111100110011 =
b1111110111111100110011 K"
b1111110111111100110011 P"
b0 6
b0 !"
b0 V"
b10 b
b10 r
b10 &"
b1 J
b1 @"
b1 m"
1B
1L
0F
b1011 O"
b1 -
b1 b"
b11 }
b11 |
b1 )
b1 '"
b1 i
b1 \
b1 1"
b0 d
b0 l
b10011 i"
b1 k"
b101 j"
b100000000100 l"
b10011 z
b101 C
b101 8"
b1 ?
b1 ;"
b1 `"
b1011 u
b101100 N"
b110000 ]"
b10 0
b10 -"
b10 X"
b10 a"
b1 2
b1 W"
b0 7
b0 *"
b0 ,"
b0 U"
b1 4
b1 ~
b1 +"
b11 ;
b11 )"
b11 T"
05
1W
1a
b100101000001010010011 I
b100101000001010010011 ?"
b100101000001010010011 L"
b100101000001010010011 h"
b101000 E
b101000 >"
b101000 M"
b101100 <
b101100 t
b101100 J"
b101100 \"
b1101 j
b1101 %
1#
#150000
0#
#155000
19"
0+
0,
b1111101110111000110011 =
b1111101110111000110011 K"
b1111101110111000110011 P"
b10 2"
03"
b1100 O"
b11 J
b11 @"
b11 m"
b10 M
b10 {
0L
1B
b1 >
b1 <"
b1 d"
b0 @
b0 ="
b0 e"
b11 b
b11 r
b11 &"
b1100 u
b110000 N"
b110011 i"
b11 k"
b11110 j"
b11110 l"
b111 x
b110011 z
b11110 C
b11110 8"
b11 ?
b11 ;"
b11 `"
b11110 A
b11110 :"
b11110 _"
b1 d
b1 l
b1010 s
b101100 ^
b101100 ["
b110100 ]"
b10 }
b10 |
b0 )
b0 '"
b0 i
b11 -
b11 b"
b0 \
b0 1"
b110000 <
b110000 t
b110000 J"
b110000 \"
b1111110111111100110011 I
b1111110111111100110011 ?"
b1111110111111100110011 L"
b1111110111111100110011 h"
b101100 E
b101100 >"
b101100 M"
b100101000001010010011 Z
b100101000001010010011 C"
b1 [
b1 B"
b101 T
b101 ("
b101 E"
b1 P
b1 ."
b1 H"
b101001 _
b101001 Z"
b101000 V
b101000 v
b101000 D"
1S
0W
b10 ;
b10 )"
b10 T"
18
b0 0
b0 -"
b0 X"
b0 a"
b0 /
b0 Y"
b11 2
b11 W"
0.
b1110 %
b1110 j
1#
#160000
0#
#165000
b11 2"
b1000000010011111000110110110011 =
b1000000010011111000110110110011 K"
b1000000010011111000110110110011 P"
1B
b11 M
b11 {
b1101 O"
b10 -
b10 b"
b11 }
b11 |
b1 )
b1 '"
b1 i
b0 &
b0 k
b0 h
b1011 s
b110000 ^
b110000 ["
b1 d
b1 l
1N
b0 b
b0 r
b0 &"
b11100 j"
b11100 l"
b110 x
b11100 C
b11100 8"
b11101 A
b11101 :"
b11101 _"
b1101 u
b110100 N"
b111000 ]"
b0 6
b0 !"
b0 V"
b10 2
b10 W"
b101 7
b101 *"
b101 ,"
b101 U"
b0 4
b0 ~
b0 +"
b11 ;
b11 )"
b11 T"
08
15
b1111110111111100110011 Z
b1111110111111100110011 C"
b11 [
b11 B"
b1 O
b1 I"
b0 Q
b0 G"
b11110 T
b11110 ("
b11110 E"
b11 P
b11 ."
b11 H"
b11110 R
b11110 /"
b11110 F"
b101111 _
b101111 Z"
b101100 V
b101100 v
b101100 D"
0a
b10 c
b10 q
b10 A"
b1111101110111000110011 I
b1111101110111000110011 ?"
b1111101110111000110011 L"
b1111101110111000110011 h"
b110000 E
b110000 >"
b110000 M"
b110100 <
b110100 t
b110100 J"
b110100 \"
b1111 j
b1111 %
1#
#170000
0#
#175000
b11011000010001100011 =
b11011000010001100011 K"
b11011000010001100011 P"
b1 2"
b1110 O"
b10000000100 J
b10000000100 @"
b10000000100 m"
1B
b1 M
b1 {
b1010 >
b1010 <"
b1010 d"
b100 @
b100 ="
b100 e"
b1 6
b1 !"
b1 V"
b1110 u
b111000 N"
b10000000100 k"
b10000011011 j"
b110000011010 l"
b100000 y
b0 x
b11011 C
b11011 8"
b100 ?
b100 ;"
b100 `"
b11111 A
b11111 :"
b11111 _"
b1100 s
b110100 ^
b110100 ["
b111100 ]"
0N
b1 b
b1 r
b1 &"
b0 }
b0 |
b11 -
b11 b"
b111000 <
b111000 t
b111000 J"
b111000 \"
b1000000010011111000110110110011 I
b1000000010011111000110110110011 ?"
b1000000010011111000110110110011 L"
b1000000010011111000110110110011 h"
b110100 E
b110100 >"
b110100 M"
b1111101110111000110011 Z
b1111101110111000110011 C"
b11100 T
b11100 ("
b11100 E"
b11101 R
b11101 /"
b11101 F"
b110011 _
b110011 Z"
b110000 V
b110000 v
b110000 D"
b11 c
b11 q
b11 A"
13
b11110 7
b11110 *"
b11110 ,"
b11110 U"
b1 4
b1 ~
b1 +"
b0 ;
b0 )"
b0 T"
b101 0
b101 -"
b101 X"
b101 a"
b11 2
b11 W"
1.
b10000 %
b10000 j
1#
#180000
0#
