pipelined_fibo.vcd
$date
	Wed Jun 25 18:09:12 2025
$end
$version
	Icarus Verilog
$end
$timescale
	1ps
$end
$scope module pipeline_cpu_tb $end
$var wire 64 ! debug_out [63:0] $end
$var parameter 32 " CLK_PERIOD $end
$var reg 1 # clk $end
$var reg 1 $ rst $end
$var integer 32 % cycle_count [31:0] $end
$var integer 32 & instruction_count [31:0] $end
$scope module dut $end
$var wire 1 # clk $end
$var wire 64 ' ex_alu_a_input [63:0] $end
$var wire 1 ( ex_branch_taken $end
$var wire 1 ) ex_prediction_incorrect $end
$var wire 64 * ex_store_data [63:0] $end
$var wire 1 + flush_pipeline $end
$var wire 1 , hazard_stall $end
$var wire 1 - raw_hazard_detected $end
$var wire 1 $ rst $end
$var wire 64 . wb_write_data [63:0] $end
$var wire 1 / wb_reg_write $end
$var wire 64 0 wb_read_data [63:0] $end
$var wire 5 1 wb_rd [4:0] $end
$var wire 1 2 wb_mem_to_reg $end
$var wire 64 3 wb_alu_result [63:0] $end
$var wire 1 4 mem_zero $end
$var wire 64 5 mem_write_data [63:0] $end
$var wire 1 6 mem_reg_write $end
$var wire 64 7 mem_read_data [63:0] $end
$var wire 5 8 mem_rd [4:0] $end
$var wire 1 9 mem_mem_write $end
$var wire 1 : mem_mem_to_reg $end
$var wire 1 ; mem_mem_read $end
$var wire 64 < mem_alu_result [63:0] $end
$var wire 64 = if_pc [63:0] $end
$var wire 32 > if_instruction [31:0] $end
$var wire 64 ? id_rs2_data [63:0] $end
$var wire 5 @ id_rs2 [4:0] $end
$var wire 64 A id_rs1_data [63:0] $end
$var wire 5 B id_rs1 [4:0] $end
$var wire 1 C id_reg_write $end
$var wire 5 D id_rd [4:0] $end
$var wire 1 E id_prediction $end
$var wire 64 F id_pc [63:0] $end
$var wire 1 G id_mem_write $end
$var wire 1 H id_mem_to_reg $end
$var wire 1 I id_mem_read $end
$var wire 32 J id_instruction [31:0] $end
$var wire 64 K id_imm [63:0] $end
$var wire 1 L id_branch $end
$var wire 1 M id_alu_src $end
$var wire 3 N id_alu_control [2:0] $end
$var wire 1 O ex_zero $end
$var wire 64 P ex_rs2_data [63:0] $end
$var wire 5 Q ex_rs2 [4:0] $end
$var wire 64 R ex_rs1_data [63:0] $end
$var wire 5 S ex_rs1 [4:0] $end
$var wire 1 T ex_reg_write $end
$var wire 5 U ex_rd [4:0] $end
$var wire 1 V ex_prediction $end
$var wire 64 W ex_pc [63:0] $end
$var wire 1 X ex_mem_write $end
$var wire 1 Y ex_mem_to_reg $end
$var wire 1 Z ex_mem_read $end
$var wire 32 [ ex_instruction [31:0] $end
$var wire 64 \ ex_imm [63:0] $end
$var wire 2 ] ex_forward_b [1:0] $end
$var wire 2 ^ ex_forward_a [1:0] $end
$var wire 64 _ ex_corrected_pc [63:0] $end
$var wire 64 ` ex_branch_target [63:0] $end
$var wire 1 a ex_branch $end
$var wire 1 b ex_alu_src $end
$var wire 64 c ex_alu_result [63:0] $end
$var wire 3 d ex_alu_control [2:0] $end
$var wire 64 e ex_alu_b_input [63:0] $end
$var wire 64 f debug_out [63:0] $end
$var wire 1 g branch_prediction $end
$var reg 1 h ex_branch_condition_met $end
$var reg 64 i ex_forwarded_a [63:0] $end
$var reg 64 j ex_forwarded_b [63:0] $end
$var integer 32 k cycle_count [31:0] $end
$scope module alu_inst $end
$var wire 64 l a [63:0] $end
$var wire 64 m b [63:0] $end
$var wire 2 n forward_a [1:0] $end
$var wire 2 o forward_b [1:0] $end
$var wire 64 p mem_result [63:0] $end
$var wire 64 q wb_result [63:0] $end
$var wire 1 O zero $end
$var wire 3 r alu_control [2:0] $end
$var reg 64 s result [63:0] $end
$upscope $end
$scope module bp_inst $end
$var wire 1 ( branch_taken $end
$var wire 1 # clk $end
$var wire 1 g prediction $end
$var wire 1 $ rst $end
$var wire 4 t resolved_index [3:0] $end
$var wire 64 u pc [63:0] $end
$var wire 4 v index [3:0] $end
$var wire 1 a branch_resolved $end
$var wire 64 w branch_pc [63:0] $end
$scope begin $ivl_for_loop0 $end
$var integer 32 x i [31:0] $end
$upscope $end
$upscope $end
$scope module cu_inst $end
$var wire 3 y funct3 [2:0] $end
$var wire 7 z funct7 [6:0] $end
$var wire 7 { opcode [6:0] $end
$var reg 3 | alu_control [2:0] $end
$var reg 1 M alu_src $end
$var reg 1 L branch $end
$var reg 1 I mem_read $end
$var reg 1 H mem_to_reg $end
$var reg 1 G mem_write $end
$var reg 1 C reg_write $end
$upscope $end
$scope module data_mem_inst $end
$var wire 32 } addr [31:0] $end
$var wire 1 # clk $end
$var wire 1 $ rst $end
$var wire 32 ~ word_addr [31:0] $end
$var wire 1 9 wr_enable $end
$var wire 64 !" wr_data [63:0] $end
$var wire 1 ; rd_enable $end
$var wire 64 "" rd_data [63:0] $end
$var parameter 32 #" mem_size $end
$var parameter 176 $" rom_file $end
$var parameter 32 %" rom_size $end
$var integer 32 &" i [31:0] $end
$upscope $end
$scope module ex_mem_reg_inst $end
$var wire 64 '" alu_result_in [63:0] $end
$var wire 1 # clk $end
$var wire 1 $ rst $end
$var wire 64 (" wr_data_in [63:0] $end
$var wire 1 O zero_in $end
$var wire 1 T reg_wr_in $end
$var wire 5 )" rd_addr_in [4:0] $end
$var wire 1 X mem_wr_in $end
$var wire 1 Y mem_to_reg_in $end
$var wire 1 Z mem_rd_in $end
$var reg 64 *" alu_result_out [63:0] $end
$var reg 1 ; mem_rd_out $end
$var reg 1 : mem_to_reg_out $end
$var reg 1 9 mem_wr_out $end
$var reg 5 +" rd_addr_out [4:0] $end
$var reg 1 6 reg_wr_out $end
$var reg 64 ," wr_data_out [63:0] $end
$var reg 1 4 zero_out $end
$upscope $end
$scope module fu_inst $end
$var wire 5 -" mem_rd [4:0] $end
$var wire 1 6 mem_reg_wr $end
$var wire 1 / wb_reg_wr $end
$var wire 5 ." wb_rd [4:0] $end
$var wire 5 /" ex_rs2 [4:0] $end
$var wire 5 0" ex_rs1 [4:0] $end
$var reg 2 1" forward_a [1:0] $end
$var reg 2 2" forward_b [1:0] $end
$upscope $end
$scope module id_ex_reg_inst $end
$var wire 3 3" alu_control_in [2:0] $end
$var wire 1 4" alu_src_in $end
$var wire 1 5" branch_in $end
$var wire 1 # clk $end
$var wire 1 + flush $end
$var wire 1 6" mem_rd_in $end
$var wire 1 7" mem_to_reg_in $end
$var wire 1 8" mem_wr_in $end
$var wire 5 9" rd_addr_in [4:0] $end
$var wire 1 :" reg_wr_in $end
$var wire 5 ;" rs1_addr_in [4:0] $end
$var wire 5 <" rs2_addr_in [4:0] $end
$var wire 1 $ rst $end
$var wire 64 =" rs2_data_in [63:0] $end
$var wire 64 >" rs1_data_in [63:0] $end
$var wire 1 E prediction_in $end
$var wire 64 ?" pc_in [63:0] $end
$var wire 32 @" instr_in [31:0] $end
$var wire 64 A" imm_in [63:0] $end
$var reg 3 B" alu_control_out [2:0] $end
$var reg 1 b alu_src_out $end
$var reg 1 a branch_out $end
$var reg 64 C" imm_out [63:0] $end
$var reg 32 D" instr_out [31:0] $end
$var reg 1 Z mem_rd_out $end
$var reg 1 Y mem_to_reg_out $end
$var reg 1 X mem_wr_out $end
$var reg 64 E" pc_out [63:0] $end
$var reg 1 V prediction_out $end
$var reg 5 F" rd_addr_out [4:0] $end
$var reg 1 T reg_wr_out $end
$var reg 5 G" rs1_addr_out [4:0] $end
$var reg 64 H" rs1_data_out [63:0] $end
$var reg 5 I" rs2_addr_out [4:0] $end
$var reg 64 J" rs2_data_out [63:0] $end
$upscope $end
$scope module if_id_reg_inst $end
$var wire 1 # clk $end
$var wire 1 + flush $end
$var wire 1 g prediction_in $end
$var wire 1 $ rst $end
$var wire 1 , stall $end
$var wire 64 K" pc_in [63:0] $end
$var wire 32 L" instr_in [31:0] $end
$var reg 32 M" instr_out [31:0] $end
$var reg 64 N" pc_out [63:0] $end
$var reg 1 E prediction_out $end
$upscope $end
$scope module instr_mem_inst $end
$var wire 32 O" address [31:0] $end
$var wire 32 P" word_addr [31:0] $end
$var wire 32 Q" instruction [31:0] $end
$var parameter 176 R" mem_file $end
$var parameter 32 S" mem_size $end
$var integer 32 T" i [31:0] $end
$upscope $end
$scope module mem_wb_reg_inst $end
$var wire 64 U" alu_result_in [63:0] $end
$var wire 1 # clk $end
$var wire 1 : mem_to_reg_in $end
$var wire 5 V" rd_addr_in [4:0] $end
$var wire 64 W" rd_data_in [63:0] $end
$var wire 1 6 reg_wr_in $end
$var wire 1 $ rst $end
$var reg 64 X" alu_result_out [63:0] $end
$var reg 1 2 mem_to_reg_out $end
$var reg 5 Y" rd_addr_out [4:0] $end
$var reg 64 Z" rd_data_out [63:0] $end
$var reg 1 / reg_wr_out $end
$upscope $end
$scope module pc_logic_inst $end
$var wire 1 ( branch_taken $end
$var wire 64 [" branch_target [63:0] $end
$var wire 1 # clk $end
$var wire 64 \" corrected_pc [63:0] $end
$var wire 1 ) prediction_incorrect $end
$var wire 1 $ rst $end
$var wire 1 , stall $end
$var reg 64 ]" pc [63:0] $end
$var reg 64 ^" pc_next [63:0] $end
$upscope $end
$scope module rf_inst $end
$var wire 1 # clk $end
$var wire 64 _" debug_output [63:0] $end
$var wire 5 `" rd_addr1 [4:0] $end
$var wire 5 a" rd_addr2 [4:0] $end
$var wire 1 $ rst $end
$var wire 5 b" wr_addr [4:0] $end
$var wire 64 c" wr_data [63:0] $end
$var wire 1 / wr_enable $end
$var wire 64 d" x5_data [63:0] $end
$var wire 64 e" rd_data2 [63:0] $end
$var wire 64 f" rd_data1 [63:0] $end
$scope begin $ivl_for_loop1 $end
$var integer 32 g" i [31:0] $end
$upscope $end
$scope begin $ivl_for_loop2 $end
$var integer 32 h" i [31:0] $end
$upscope $end
$upscope $end
$scope module sign_ext_inst $end
$var wire 32 i" instr [31:0] $end
$var wire 7 j" opcode [6:0] $end
$var wire 64 k" imm_s [63:0] $end
$var wire 64 l" imm_i [63:0] $end
$var wire 64 m" imm_b [63:0] $end
$var reg 64 n" imm_out [63:0] $end
$upscope $end
$upscope $end
$scope begin cpi_calculation $end
$var real 1 o" cpi_value $end
$upscope $end
$scope begin memory_dump $end
$var integer 32 p" i [31:0] $end
$upscope $end
$scope begin verification $end
$var integer 32 q" correct_count [31:0] $end
$upscope $end
$upscope $end
$enddefinitions $end
$comment Show the parameter values. $end
$dumpall
b10100 S"
b1110000011100100110111101100111011100100110000101101101011100110010111101100110011010010110001001101111010111110110001101101111011011010111000000101110011011010110010101101101 R"
b10 %"
b1110000011100100110111101100111011100100110000101101101011100110010111101100110011010010110001001101111010111110110010001100001011101000110000100101110011011010110010101101101 $"
b100000000 #"
b1010 "
$end
#0
$dumpvars
bx q"
bx p"
r0 o"
b0 n"
b0 m"
b0 l"
b0 k"
b10011 j"
b10011 i"
b0 h"
b100000 g"
b0 f"
b0 e"
b0 d"
b0 c"
b0 b"
b0 a"
b0 `"
b0 _"
b100 ^"
b0 ]"
b100 \"
b0 ["
b0 Z"
b0 Y"
b0 X"
b1 W"
b0 V"
b0 U"
b10000 T"
b11000010000011 Q"
b0 P"
b0 O"
b0 N"
b10011 M"
b11000010000011 L"
b0 K"
b0 J"
b0 I"
b0 H"
b0 G"
b0 F"
b0 E"
b10011 D"
b0 C"
b0 B"
b0 A"
b10011 @"
b0 ?"
b0 >"
b0 ="
b0 <"
b0 ;"
1:"
b0 9"
08"
07"
06"
05"
14"
b0 3"
b0 2"
b0 1"
b0 0"
b0 /"
b0 ."
b0 -"
b0 ,"
b0 +"
b0 *"
b0 )"
b0 ("
b0 '"
b10 &"
b1 ""
b0 !"
b0 ~
b0 }
b0 |
b10011 {
b0 z
b0 y
b10000 x
b0 w
b0 v
b0 u
b0 t
b0 s
b0 r
b0 q
b0 p
b0 o
b0 n
b0 m
b0 l
b0 k
b0 j
b0 i
0h
1g
b0 f
b0 e
b0 d
b0 c
0b
0a
b0 `
b100 _
b0 ^
b0 ]
b0 \
b10011 [
0Z
0Y
0X
b0 W
0V
b0 U
0T
b0 S
b0 R
b0 Q
b0 P
1O
b0 N
1M
0L
b0 K
b10011 J
0I
0H
0G
b0 F
0E
b0 D
1C
b0 B
b0 A
b0 @
b0 ?
b11000010000011 >
b0 =
b0 <
0;
0:
09
b0 8
b1 7
06
b0 5
04
b0 3
02
b0 1
b0 0
0/
b0 .
0-
0,
0+
b0 *
0)
0(
b0 '
b0 &
b0 %
1$
0#
b0 !
$end
#5000
b10000 x
b100000 h"
1#
#10000
0#
#15000
b10000 x
b100000 h"
1#
#20000
0#
0$
#25000
17"
16"
b100000000011000100000011 >
b100000000011000100000011 L"
b100000000011000100000011 Q"
1H
1I
1M
1C
b1 P"
b11 j"
b1 k"
b100000000000 m"
b11 y
b11 {
b1 D
b1 9"
b1 v
b100 O"
b1000 ^"
b1 0
b1 Z"
14
1T
1b
1E
b11000010000011 J
b11000010000011 @"
b11000010000011 M"
b11000010000011 i"
b100 =
b100 u
b100 K"
b100 ]"
b1 k
b1 %
1#
#30000
0#
#35000
b111110010011 >
b111110010011 L"
b111110010011 Q"
1:"
16"
17"
14"
b10 P"
b1000 K
b1000 A"
b1000 n"
0,
0-
b10 v
b1000 O"
b1100 ^"
b1000 l"
b10 k"
b10 m"
b10 D
b10 9"
b1000 @
b1000 <"
b1000 a"
b1000 =
b1000 u
b1000 K"
b1000 ]"
b100000000011000100000011 J
b100000000011000100000011 @"
b100000000011000100000011 M"
b100000000011000100000011 i"
b100 F
b100 ?"
b100 N"
b11000010000011 [
b11000010000011 D"
b1 U
b1 )"
b1 F"
1Y
1Z
1V
16
b10 %
b10 k
1#
#40000
0#
#45000
07"
06"
b101000000000001000010011 >
b101000000000001000010011 L"
b101000000000001000010011 Q"
0O
b1000 c
b1000 s
b1000 '"
b0 K
b0 A"
b0 n"
1M
0H
0I
1C
b11 P"
b1000 e
b1000 m
b1 t
b1000 _
b1000 \"
b10011 j"
b0 l"
b11111 k"
b100000011110 m"
b0 y
b10011 {
b11111 D
b11111 9"
b0 @
b0 <"
b0 a"
b11 v
b1100 O"
b10000 ^"
1/
b1 8
b1 +"
b1 -"
b1 V"
1:
1;
b100000000011000100000011 [
b100000000011000100000011 D"
b1000 \
b1000 C"
b10 U
b10 )"
b10 F"
b1000 Q
b1000 /"
b1000 I"
b1100 `
b1100 ["
b100 W
b100 w
b100 E"
b111110010011 J
b111110010011 @"
b111110010011 M"
b111110010011 i"
b1000 F
b1000 ?"
b1000 N"
b1100 =
b1100 u
b1100 K"
b1100 ]"
b11 k
b11 %
1#
#50000
0#
#55000
b1000000000001010010011 >
b1000000000001010010011 L"
b1000000000001010010011 Q"
b100 P"
b1010 K
b1010 A"
b1010 n"
1O
b0 c
b0 s
b0 '"
b0 7
b0 ""
b0 W"
b100 v
b10000 O"
b1010 l"
b100 k"
b100 m"
b100 D
b100 9"
b1010 @
b1010 <"
b1010 a"
b0 e
b0 m
b10 t
b1100 _
b1100 \"
b10100 ^"
b1000 ~
b1000 }
b1 .
b1 c"
b10000 =
b10000 u
b10000 K"
b10000 ]"
b101000000000001000010011 J
b101000000000001000010011 @"
b101000000000001000010011 M"
b101000000000001000010011 i"
b1100 F
b1100 ?"
b1100 N"
b111110010011 [
b111110010011 D"
b0 \
b0 C"
b11111 U
b11111 )"
b11111 F"
b0 Q
b0 /"
b0 I"
b1000 `
b1000 ["
b1000 W
b1000 w
b1000 E"
0Y
0Z
04
b10 8
b10 +"
b10 -"
b10 V"
b1000 <
b1000 *"
b1000 U"
b1 1
b1 ."
b1 Y"
b1 b"
12
b1 &
b100 %
b100 k
1#
#60000
0#
#65000
b1000001000000110110011 >
b1000001000000110110011 L"
b1000001000000110110011 Q"
b1 7
b1 ""
b1 W"
0O
b1010 c
b1010 s
b1010 '"
b10 K
b10 A"
b10 n"
b101 P"
b0 .
b0 c"
b0 ~
b0 }
b1010 e
b1010 m
b11 t
b10000 _
b10000 \"
b10 l"
b101 k"
b100000000100 m"
b101 D
b101 9"
b10 @
b10 <"
b10 a"
b101 v
b10100 O"
b11000 ^"
b10 1
b10 ."
b10 Y"
b10 b"
b0 0
b0 Z"
b1000 3
b1000 X"
14
b11111 8
b11111 +"
b11111 -"
b11111 V"
b0 <
b0 *"
b0 U"
0:
0;
b101000000000001000010011 [
b101000000000001000010011 D"
b1010 \
b1010 C"
b100 U
b100 )"
b100 F"
b1010 Q
b1010 /"
b1010 I"
b10110 `
b10110 ["
b1100 W
b1100 w
b1100 E"
b1000000000001010010011 J
b1000000000001010010011 @"
b1000000000001010010011 M"
b1000000000001010010011 i"
b10000 F
b10000 ?"
b10000 N"
b10100 =
b10100 u
b10100 K"
b10100 ]"
b101 k
b10 &
b101 %
1#
#70000
0#
#75000
b1100011000111110010011 >
b1100011000111110010011 L"
b1100011000111110010011 Q"
04"
b110 P"
0M
1C
b1 A
b1 >"
b1 f"
b10 c
b10 s
b10 '"
b0 7
b0 ""
b0 W"
b110 v
b11000 O"
b110011 j"
b11 k"
b100000000010 m"
b110011 {
b11 D
b11 9"
b1 B
b1 ;"
b1 `"
b10 e
b10 m
b100 t
b10100 _
b10100 \"
b11100 ^"
b1010 ~
b1010 }
b11000 =
b11000 u
b11000 K"
b11000 ]"
b1000001000000110110011 J
b1000001000000110110011 @"
b1000001000000110110011 M"
b1000001000000110110011 i"
b10100 F
b10100 ?"
b10100 N"
b1000000000001010010011 [
b1000000000001010010011 D"
b10 \
b10 C"
b101 U
b101 )"
b101 F"
b10 Q
b10 /"
b10 I"
b10010 `
b10010 ["
b10000 W
b10000 w
b10000 E"
04
b100 8
b100 +"
b100 -"
b100 V"
b1010 <
b1010 *"
b1010 U"
b11111 1
b11111 ."
b11111 Y"
b11111 b"
b1 0
b1 Z"
b0 3
b0 X"
02
b11 &
b110 %
b110 k
1#
#80000
0#
#85000
0:"
1,
1-
04"
b10000000010010011 >
b10000000010010011 L"
b10000000010010011 Q"
b1 c
b1 s
b1 '"
b11 K
b11 A"
b11 n"
1M
1C
b0 A
b0 >"
b0 f"
b111 P"
b1010 .
b1010 c"
b10 ~
b10 }
b1 '
b1 l
b1 i
b101 t
b11000 _
b11000 \"
b0 e
b0 m
b10011 j"
b11 l"
b11111 k"
b100000011110 m"
b10011 {
b11111 D
b11111 9"
b11 @
b11 <"
b11 a"
b11 B
b11 ;"
b11 `"
b111 v
b11100 O"
b11100 ^"
b100 1
b100 ."
b100 Y"
b100 b"
b0 0
b0 Z"
b1010 3
b1010 X"
b101 8
b101 +"
b101 -"
b101 V"
b10 <
b10 *"
b10 U"
b1000001000000110110011 [
b1000001000000110110011 D"
b1 R
b1 H"
b11 U
b11 )"
b11 F"
b1 S
b1 0"
b1 G"
b10110 `
b10110 ["
b10100 W
b10100 w
b10100 E"
0b
b1100011000111110010011 J
b1100011000111110010011 @"
b1100011000111110010011 M"
b1100011000111110010011 i"
b11000 F
b11000 ?"
b11000 N"
b11100 =
b11100 u
b11100 K"
b11100 ]"
b111 k
b100 &
b111 %
1#
#90000
0#
#95000
1:"
14"
b100000 ^"
0,
0-
b10 c
b10 s
b10 '"
b1 7
b1 ""
b1 W"
b1 e
b1 m
b110 t
b11100 _
b11100 \"
b1 ~
b1 }
b1 *
b1 ("
b1 j
b10 ]
b10 2"
b10 ^
b10 1"
b10 .
b10 c"
b1100011000111110010011 [
b1100011000111110010011 D"
b11 \
b11 C"
b0 R
b0 H"
b11111 U
b11111 )"
b11111 F"
b11 Q
b11 /"
b11 I"
b11 S
b11 0"
b11 G"
b11011 `
b11011 ["
b11000 W
b11000 w
b11000 E"
0T
b11 8
b11 +"
b11 -"
b11 V"
b1 <
b1 *"
b1 U"
b101 1
b101 ."
b101 Y"
b101 b"
b10 3
b10 X"
b101 &
b1000 %
b1000 k
1#
#100000
0#
#105000
b11000000100010011 >
b11000000100010011 L"
b11000000100010011 Q"
b0 7
b0 ""
b0 W"
b100 c
b100 s
b100 '"
b0 K
b0 A"
b0 n"
b1000 P"
b1 .
b1 c"
b10 ~
b10 }
b1 '
b1 l
b1 i
b1 *
b1 ("
b1 j
b1 ]
b1 2"
b1 ^
b1 1"
b11 e
b11 m
b0 l"
b1 k"
b100000000000 m"
b1 D
b1 9"
b0 @
b0 <"
b0 a"
b10 B
b10 ;"
b10 `"
b1000 v
b100000 O"
b100100 ^"
b11 1
b11 ."
b11 Y"
b11 b"
b1 0
b1 Z"
b1 3
b1 X"
b11111 8
b11111 +"
b11111 -"
b11111 V"
b1 5
b1 !"
b1 ,"
b10 <
b10 *"
b10 U"
06
1T
1b
b10000000010010011 J
b10000000010010011 @"
b10000000010010011 M"
b10000000010010011 i"
b11100 F
b11100 ?"
b11100 N"
b100000 =
b100000 u
b100000 K"
b100000 ]"
b1001 k
b110 &
b1001 %
b10 d"
1#
#110000
0#
#115000
b1000101000000000100011 >
b1000101000000000100011 L"
b1000101000000000100011 Q"
b1001 P"
b1 A
b1 >"
b1 f"
1O
b0 c
b0 s
b0 '"
b1001 v
b100100 O"
b10 k"
b10 m"
b10 D
b10 9"
b11 B
b11 ;"
b11 `"
b0 e
b0 m
b111 t
b100000 _
b100000 \"
b101000 ^"
b100 ~
b100 }
b0 '
b0 l
b0 i
b0 *
b0 ("
b0 j
b10 .
b10 c"
b0 ]
b0 2"
b0 ^
b0 1"
b100100 =
b100100 u
b100100 K"
b100100 ]"
b11000000100010011 J
b11000000100010011 @"
b11000000100010011 M"
b11000000100010011 i"
b100000 F
b100000 ?"
b100000 N"
b10000000010010011 [
b10000000010010011 D"
b0 \
b0 C"
b1 U
b1 )"
b1 F"
b0 Q
b0 /"
b0 I"
b10 S
b10 0"
b10 G"
b11100 `
b11100 ["
b11100 W
b11100 w
b11100 E"
b100 <
b100 *"
b100 U"
16
b11111 1
b11111 ."
b11111 Y"
b11111 b"
b0 0
b0 Z"
b10 3
b10 X"
0/
b111 &
b1010 %
b1010 k
1#
#120000
0#
#125000
04"
1,
1-
08"
0:"
b100101000001010010011 >
b100101000001010010011 L"
b100101000001010010011 Q"
b1 7
b1 ""
b1 W"
0O
b1 c
b1 s
b1 '"
1G
1M
0C
b10 A
b10 >"
b10 f"
b1010 P"
b100 .
b100 c"
b0 ~
b0 }
b1 '
b1 l
b1 i
b1000 t
b100100 _
b100100 \"
b100011 j"
b10 l"
b0 k"
b0 m"
b100011 {
b0 D
b0 9"
b10 @
b10 <"
b10 a"
b101 B
b101 ;"
b101 `"
b1010 v
b101000 O"
b101000 ^"
b100 3
b100 X"
1/
14
b1 8
b1 +"
b1 -"
b1 V"
b0 5
b0 !"
b0 ,"
b0 <
b0 *"
b0 U"
b11000000100010011 [
b11000000100010011 D"
b1 R
b1 H"
b10 U
b10 )"
b10 F"
b11 S
b11 0"
b11 G"
b100000 `
b100000 ["
b100000 W
b100000 w
b100000 E"
b1000101000000000100011 J
b1000101000000000100011 @"
b1000101000000000100011 M"
b1000101000000000100011 i"
b100100 F
b100100 ?"
b100100 N"
b101000 =
b101000 u
b101000 K"
b101000 ]"
b1011 k
b1011 %
1#
#130000
0#
#135000
18"
14"
b101100 ^"
0,
0-
b11 c
b11 s
b11 '"
b1001 t
b101000 _
b101000 \"
b1 e
b1 m
b1 ~
b1 }
b10 '
b10 l
b10 i
b1 *
b1 ("
b1 j
b10 ]
b10 2"
b0 .
b0 c"
b1000101000000000100011 [
b1000101000000000100011 D"
b10 R
b10 H"
b0 U
b0 )"
b0 F"
b10 Q
b10 /"
b10 I"
b101 S
b101 0"
b101 G"
b100100 `
b100100 ["
b100100 W
b100100 w
b100100 E"
0T
0b
04
b10 8
b10 +"
b10 -"
b10 V"
b1 <
b1 *"
b1 U"
b1 1
b1 ."
b1 Y"
b1 b"
b1 0
b1 Z"
b0 3
b0 X"
b100 !
b100 f
b100 _"
b1000 &
b1100 %
b1100 k
1#
#140000
0#
#145000
1:"
08"
b1111110111111100110011 >
b1111110111111100110011 L"
b1111110111111100110011 Q"
b0 7
b0 ""
b0 W"
b10 c
b10 s
b10 '"
b1 K
b1 A"
b1 n"
1C
1M
0G
b1011 P"
b1 .
b1 c"
b11 ~
b11 }
b1 *
b1 ("
b1 j
b1 ]
b1 2"
b0 e
b0 m
b10011 j"
b1 l"
b101 k"
b100000000100 m"
b10011 {
b101 D
b101 9"
b1 @
b1 <"
b1 a"
b1011 v
b101100 O"
b110000 ^"
b10 1
b10 ."
b10 Y"
b10 b"
b1 3
b1 X"
b0 8
b0 +"
b0 -"
b0 V"
b1 5
b1 !"
b1 ,"
b11 <
b11 *"
b11 U"
06
1X
1b
b100101000001010010011 J
b100101000001010010011 @"
b100101000001010010011 M"
b100101000001010010011 i"
b101000 F
b101000 ?"
b101000 N"
b101100 =
b101100 u
b101100 K"
b101100 ]"
b1101 k
b1001 &
b1101 %
1#
#150000
0#
#155000
1:"
0,
0-
b1111101110111000110011 >
b1111101110111000110011 L"
b1111101110111000110011 Q"
b10 3"
04"
b1100 P"
b11 K
b11 A"
b11 n"
b10 N
b10 |
0M
1C
b1 ?
b1 ="
b1 e"
b0 A
b0 >"
b0 f"
b11 c
b11 s
b11 '"
b1100 v
b110000 O"
b110011 j"
b11 l"
b11110 k"
b11110 m"
b111 y
b110011 {
b11110 D
b11110 9"
b11 @
b11 <"
b11 a"
b11110 B
b11110 ;"
b11110 `"
b1 e
b1 m
b1010 t
b101100 _
b101100 \"
b110100 ^"
b10 ~
b10 }
b0 *
b0 ("
b0 j
b11 .
b11 c"
b0 ]
b0 2"
b110000 =
b110000 u
b110000 K"
b110000 ]"
b1111110111111100110011 J
b1111110111111100110011 @"
b1111110111111100110011 M"
b1111110111111100110011 i"
b101100 F
b101100 ?"
b101100 N"
b100101000001010010011 [
b100101000001010010011 D"
b1 \
b1 C"
b101 U
b101 )"
b101 F"
b1 Q
b1 /"
b1 I"
b101001 `
b101001 ["
b101000 W
b101000 w
b101000 E"
1T
0X
b10 <
b10 *"
b10 U"
19
b0 1
b0 ."
b0 Y"
b0 b"
b0 0
b0 Z"
b11 3
b11 X"
0/
b1010 &
b1110 %
b1110 k
1#
#160000
0#
#165000
b11 3"
b1000000010011111000110110110011 >
b1000000010011111000110110110011 L"
b1000000010011111000110110110011 Q"
1C
b11 N
b11 |
b1101 P"
b10 .
b10 c"
b11 ~
b11 }
b1 *
b1 ("
b1 j
b0 '
b0 l
b0 i
b1011 t
b110000 _
b110000 \"
b1 e
b1 m
1O
b0 c
b0 s
b0 '"
b11100 k"
b11100 m"
b110 y
b11100 D
b11100 9"
b11101 B
b11101 ;"
b11101 `"
b1101 v
b110100 O"
b111000 ^"
b0 7
b0 ""
b0 W"
b10 3
b10 X"
b101 8
b101 +"
b101 -"
b101 V"
b0 5
b0 !"
b0 ,"
b11 <
b11 *"
b11 U"
09
16
b1111110111111100110011 [
b1111110111111100110011 D"
b11 \
b11 C"
b1 P
b1 J"
b0 R
b0 H"
b11110 U
b11110 )"
b11110 F"
b11 Q
b11 /"
b11 I"
b11110 S
b11110 0"
b11110 G"
b101111 `
b101111 ["
b101100 W
b101100 w
b101100 E"
0b
b10 d
b10 r
b10 B"
b1111101110111000110011 J
b1111101110111000110011 @"
b1111101110111000110011 M"
b1111101110111000110011 i"
b110000 F
b110000 ?"
b110000 N"
b110100 =
b110100 u
b110100 K"
b110100 ]"
b1111 k
b1011 &
b1111 %
1#
#170000
0#
#175000
b11011000010001100011 >
b11011000010001100011 L"
b11011000010001100011 Q"
b1 3"
b1110 P"
b10000000100 K
b10000000100 A"
b10000000100 n"
1C
b1 N
b1 |
b1010 ?
b1010 ="
b1010 e"
b100 A
b100 >"
b100 f"
b1 7
b1 ""
b1 W"
b1110 v
b111000 O"
b10000000100 l"
b10000011011 k"
b110000011010 m"
b100000 z
b0 y
b11011 D
b11011 9"
b100 @
b100 <"
b100 a"
b11111 B
b11111 ;"
b11111 `"
b1100 t
b110100 _
b110100 \"
b111100 ^"
0O
b1 c
b1 s
b1 '"
b0 ~
b0 }
b11 .
b11 c"
b111000 =
b111000 u
b111000 K"
b111000 ]"
b1000000010011111000110110110011 J
b1000000010011111000110110110011 @"
b1000000010011111000110110110011 M"
b1000000010011111000110110110011 i"
b110100 F
b110100 ?"
b110100 N"
b1111101110111000110011 [
b1111101110111000110011 D"
b11100 U
b11100 )"
b11100 F"
b11101 S
b11101 0"
b11101 G"
b110011 `
b110011 ["
b110000 W
b110000 w
b110000 E"
b11 d
b11 r
b11 B"
14
b11110 8
b11110 +"
b11110 -"
b11110 V"
b1 5
b1 !"
b1 ,"
b0 <
b0 *"
b0 U"
b101 1
b101 ."
b101 Y"
b101 b"
b11 3
b11 X"
1/
b10000 %
b10000 k
1#
#180000
0#
