pipelined_fibo.vcd
$date
	Sat Jun 21 10:16:42 2025
$end
$version
	Icarus Verilog
$end
$timescale
	1ps
$end
$scope module pipelined_cpu_tb $end
$var wire 64 ! debug_out [63:0] $end
$var reg 1 " clk $end
$var reg 1 # rst $end
$var integer 32 $ current_fib_count [31:0] $end
$var integer 32 % cycle_count [31:0] $end
$var integer 32 & prev_fib_count [31:0] $end
$scope module cpu $end
$var wire 1 " clk $end
$var wire 1 ' ex_branch_taken $end
$var wire 1 ( ex_prediction_incorrect $end
$var wire 1 ) flush_pipeline $end
$var wire 1 # rst $end
$var wire 64 * wb_write_data [63:0] $end
$var wire 1 + wb_reg_write $end
$var wire 64 , wb_read_data [63:0] $end
$var wire 5 - wb_rd [4:0] $end
$var wire 1 . wb_mem_to_reg $end
$var wire 64 / wb_alu_result [63:0] $end
$var wire 1 0 mem_zero $end
$var wire 64 1 mem_write_data [63:0] $end
$var wire 1 2 mem_reg_write $end
$var wire 64 3 mem_read_data [63:0] $end
$var wire 5 4 mem_rd [4:0] $end
$var wire 1 5 mem_mem_write $end
$var wire 1 6 mem_mem_to_reg $end
$var wire 1 7 mem_mem_read $end
$var wire 64 8 mem_alu_result [63:0] $end
$var wire 64 9 if_pc [63:0] $end
$var wire 32 : if_instruction [31:0] $end
$var wire 64 ; id_rs2_data [63:0] $end
$var wire 5 < id_rs2 [4:0] $end
$var wire 64 = id_rs1_data [63:0] $end
$var wire 5 > id_rs1 [4:0] $end
$var wire 1 ? id_reg_write $end
$var wire 5 @ id_rd [4:0] $end
$var wire 1 A id_prediction $end
$var wire 64 B id_pc [63:0] $end
$var wire 1 C id_mem_write $end
$var wire 1 D id_mem_to_reg $end
$var wire 1 E id_mem_read $end
$var wire 32 F id_instruction [31:0] $end
$var wire 64 G id_imm [63:0] $end
$var wire 1 H id_branch $end
$var wire 1 I id_alu_src $end
$var wire 3 J id_alu_control [2:0] $end
$var wire 1 K hazard_stall $end
$var wire 1 L ex_zero $end
$var wire 64 M ex_rs2_data [63:0] $end
$var wire 5 N ex_rs2 [4:0] $end
$var wire 64 O ex_rs1_data [63:0] $end
$var wire 5 P ex_rs1 [4:0] $end
$var wire 1 Q ex_reg_write $end
$var wire 5 R ex_rd [4:0] $end
$var wire 1 S ex_prediction $end
$var wire 64 T ex_pc [63:0] $end
$var wire 1 U ex_mem_write $end
$var wire 1 V ex_mem_to_reg $end
$var wire 1 W ex_mem_read $end
$var wire 64 X ex_imm [63:0] $end
$var wire 2 Y ex_forward_b [1:0] $end
$var wire 2 Z ex_forward_a [1:0] $end
$var wire 64 [ ex_corrected_pc [63:0] $end
$var wire 1 \ ex_branch_target $end
$var wire 1 ] ex_branch $end
$var wire 1 ^ ex_alu_src $end
$var wire 64 _ ex_alu_result [63:0] $end
$var wire 3 ` ex_alu_control [2:0] $end
$var wire 64 a debug_out [63:0] $end
$var wire 1 b branch_prediction $end
$var reg 64 c ex_alu_b_input [63:0] $end
$var reg 2 d ex_forward_store [1:0] $end
$var reg 64 e ex_store_data [63:0] $end
$scope module alu_inst $end
$var wire 64 f b [63:0] $end
$var wire 64 g wb_result [63:0] $end
$var wire 1 L zero $end
$var wire 64 h mem_result [63:0] $end
$var wire 2 i forward_b [1:0] $end
$var wire 2 j forward_a [1:0] $end
$var wire 3 k alu_control [2:0] $end
$var wire 64 l a [63:0] $end
$var parameter 2 m FWD_MEM $end
$var parameter 2 n FWD_NONE $end
$var parameter 2 o FWD_WB $end
$var reg 64 p alu_a [63:0] $end
$var reg 64 q alu_b [63:0] $end
$var reg 64 r result [63:0] $end
$upscope $end
$scope module bp_inst $end
$var wire 1 ' branch_taken $end
$var wire 1 " clk $end
$var wire 1 b prediction $end
$var wire 1 # rst $end
$var wire 4 s resolved_index [3:0] $end
$var wire 64 t pc [63:0] $end
$var wire 4 u index [3:0] $end
$var wire 1 ] branch_resolved $end
$var wire 64 v branch_pc [63:0] $end
$scope begin $ivl_for_loop0 $end
$var integer 32 w i [31:0] $end
$upscope $end
$upscope $end
$scope module cu_inst $end
$var wire 3 x funct3 [2:0] $end
$var wire 7 y funct7 [6:0] $end
$var wire 7 z opcode [6:0] $end
$var reg 3 { alu_control [2:0] $end
$var reg 1 I alu_src $end
$var reg 1 H branch $end
$var reg 1 E mem_read $end
$var reg 1 D mem_to_reg $end
$var reg 1 C mem_write $end
$var reg 1 ? reg_write $end
$upscope $end
$scope module data_mem_inst $end
$var wire 32 | addr [31:0] $end
$var wire 1 " clk $end
$var wire 32 } mem_addr [31:0] $end
$var wire 1 # rst $end
$var wire 1 5 wr_enable $end
$var wire 64 ~ wr_data [63:0] $end
$var wire 1 7 rd_enable $end
$var wire 64 !" rd_data [63:0] $end
$var parameter 32 "" mem_size $end
$var parameter 176 #" rom_file $end
$var parameter 32 $" rom_size $end
$var integer 32 %" i [31:0] $end
$upscope $end
$scope module ex_mem_reg_inst $end
$var wire 64 &" alu_result_in [63:0] $end
$var wire 1 " clk $end
$var wire 1 # rst $end
$var wire 64 '" wr_data_in [63:0] $end
$var wire 1 L zero_in $end
$var wire 1 Q reg_wr_in $end
$var wire 5 (" rd_addr_in [4:0] $end
$var wire 1 U mem_wr_in $end
$var wire 1 V mem_to_reg_in $end
$var wire 1 W mem_rd_in $end
$var reg 64 )" alu_result_out [63:0] $end
$var reg 1 7 mem_rd_out $end
$var reg 1 6 mem_to_reg_out $end
$var reg 1 5 mem_wr_out $end
$var reg 5 *" rd_addr_out [4:0] $end
$var reg 1 2 reg_wr_out $end
$var reg 64 +" wr_data_out [63:0] $end
$var reg 1 0 zero_out $end
$upscope $end
$scope module fu_inst $end
$var wire 5 ," mem_rd [4:0] $end
$var wire 1 2 mem_reg_wr $end
$var wire 1 + wb_reg_wr $end
$var wire 5 -" wb_rd [4:0] $end
$var wire 5 ." ex_rs2 [4:0] $end
$var wire 5 /" ex_rs1 [4:0] $end
$var reg 2 0" forward_a [1:0] $end
$var reg 2 1" forward_b [1:0] $end
$upscope $end
$scope module hdu_inst $end
$var wire 1 2" flush_id_ex $end
$var wire 1 H id_branch $end
$var wire 1 E id_mem_rd $end
$var wire 1 C id_mem_wr $end
$var wire 5 3" id_rs1 [4:0] $end
$var wire 5 4" id_rs2 [4:0] $end
$var wire 1 7 mem_mem_rd $end
$var wire 5 5" mem_rd [4:0] $end
$var wire 1 2 mem_reg_wr $end
$var wire 1 Q ex_reg_wr $end
$var wire 5 6" ex_rd [4:0] $end
$var wire 1 W ex_mem_rd $end
$var reg 1 7" branch_load_hazard $end
$var reg 1 8" branch_load_hazard_mem $end
$var reg 1 9" double_load_hazard $end
$var reg 1 :" load_hazard_ex $end
$var reg 1 ;" load_hazard_mem $end
$var reg 1 K stall $end
$upscope $end
$scope module id_ex_reg_inst $end
$var wire 3 <" alu_control_in [2:0] $end
$var wire 1 I alu_src_in $end
$var wire 1 H branch_in $end
$var wire 1 " clk $end
$var wire 1 ) flush $end
$var wire 1 E mem_rd_in $end
$var wire 1 D mem_to_reg_in $end
$var wire 1 C mem_wr_in $end
$var wire 5 =" rd_addr_in [4:0] $end
$var wire 1 ? reg_wr_in $end
$var wire 5 >" rs1_addr_in [4:0] $end
$var wire 5 ?" rs2_addr_in [4:0] $end
$var wire 1 # rst $end
$var wire 64 @" rs2_data_in [63:0] $end
$var wire 64 A" rs1_data_in [63:0] $end
$var wire 1 A prediction_in $end
$var wire 64 B" pc_in [63:0] $end
$var wire 64 C" imm_in [63:0] $end
$var reg 3 D" alu_control_out [2:0] $end
$var reg 1 ^ alu_src_out $end
$var reg 1 ] branch_out $end
$var reg 64 E" imm_out [63:0] $end
$var reg 1 W mem_rd_out $end
$var reg 1 V mem_to_reg_out $end
$var reg 1 U mem_wr_out $end
$var reg 64 F" pc_out [63:0] $end
$var reg 1 S prediction_out $end
$var reg 5 G" rd_addr_out [4:0] $end
$var reg 1 Q reg_wr_out $end
$var reg 5 H" rs1_addr_out [4:0] $end
$var reg 64 I" rs1_data_out [63:0] $end
$var reg 5 J" rs2_addr_out [4:0] $end
$var reg 64 K" rs2_data_out [63:0] $end
$upscope $end
$scope module if_id_reg_inst $end
$var wire 1 " clk $end
$var wire 1 ) flush $end
$var wire 1 b prediction_in $end
$var wire 1 # rst $end
$var wire 1 K stall $end
$var wire 64 L" pc_in [63:0] $end
$var wire 32 M" instr_in [31:0] $end
$var reg 32 N" instr_out [31:0] $end
$var reg 64 O" pc_out [63:0] $end
$var reg 1 A prediction_out $end
$upscope $end
$scope module instr_mem_inst $end
$var wire 32 P" address [31:0] $end
$var wire 32 Q" word_addr [31:0] $end
$var wire 32 R" instruction [31:0] $end
$var parameter 176 S" mem_file $end
$var parameter 32 T" mem_size $end
$var integer 32 U" i [31:0] $end
$upscope $end
$scope module mem_wb_reg_inst $end
$var wire 64 V" alu_result_in [63:0] $end
$var wire 1 " clk $end
$var wire 1 6 mem_to_reg_in $end
$var wire 5 W" rd_addr_in [4:0] $end
$var wire 64 X" rd_data_in [63:0] $end
$var wire 1 2 reg_wr_in $end
$var wire 1 # rst $end
$var reg 64 Y" alu_result_out [63:0] $end
$var reg 1 . mem_to_reg_out $end
$var reg 5 Z" rd_addr_out [4:0] $end
$var reg 64 [" rd_data_out [63:0] $end
$var reg 1 + reg_wr_out $end
$upscope $end
$scope module pc_logic_inst $end
$var wire 1 \" branch_taken $end
$var wire 64 ]" branch_target [63:0] $end
$var wire 1 " clk $end
$var wire 64 ^" corrected_pc [63:0] $end
$var wire 1 ( prediction_incorrect $end
$var wire 1 # rst $end
$var wire 1 K stall $end
$var reg 64 _" pc [63:0] $end
$var reg 64 `" pc_next [63:0] $end
$upscope $end
$scope module rf_inst $end
$var wire 1 " clk $end
$var wire 64 a" debug_output [63:0] $end
$var wire 5 b" rd_addr1 [4:0] $end
$var wire 5 c" rd_addr2 [4:0] $end
$var wire 1 # rst $end
$var wire 5 d" wr_addr [4:0] $end
$var wire 64 e" wr_data [63:0] $end
$var wire 1 + wr_enable $end
$var wire 64 f" rd_data2 [63:0] $end
$var wire 64 g" rd_data1 [63:0] $end
$var integer 32 h" i [31:0] $end
$upscope $end
$scope module sign_ext_inst $end
$var wire 32 i" instr [31:0] $end
$var wire 64 j" imm_s [63:0] $end
$var wire 64 k" imm_out [63:0] $end
$var wire 64 l" imm_i [63:0] $end
$var wire 64 m" imm_b [63:0] $end
$upscope $end
$upscope $end
$scope begin $unm_blk_89 $end
$var integer 32 n" correct_count [31:0] $end
$var integer 32 o" i [31:0] $end
$var integer 32 p" mem_addr [31:0] $end
$var integer 32 q" mem_value [31:0] $end
$upscope $end
$upscope $end
$enddefinitions $end
$comment Show the parameter values. $end
$dumpall
b10001 T"
b1110000011100100110111101100111011100100110000101101101011100110010111101100110011010010110001001101111010111110110001101101111011011010111000000101110011011010110010101101101 S"
b10 $"
b1110000011100100110111101100111011100100110000101101101011100110010111101100110011010010110001001101111010111110110010001100001011101000110000100101110011011010110010101101101 #"
b100000000 ""
b1 o
b0 n
b10 m
$end
#0
$dumpvars
bx q"
bx p"
bx o"
bx n"
b0 m"
b0 l"
b0 k"
b0 j"
b0 i"
b100000 h"
b0 g"
b0 f"
b0 e"
b0 d"
b0 c"
b0 b"
b0 a"
b100 `"
b0 _"
b100 ^"
b0 ]"
0\"
b0 ["
b0 Z"
b0 Y"
b1 X"
b0 W"
b0 V"
b10001 U"
b11000010000011 R"
b0 Q"
b0 P"
b0 O"
b0 N"
b11000010000011 M"
b0 L"
b0 K"
b0 J"
b0 I"
b0 H"
b0 G"
b0 F"
b0 E"
b0 D"
b0 C"
b0 B"
b0 A"
b0 @"
b0 ?"
b0 >"
b0 ="
b0 <"
0;"
0:"
09"
08"
07"
b0 6"
b0 5"
b0 4"
b0 3"
02"
b0 1"
b0 0"
b0 /"
b0 ."
b0 -"
b0 ,"
b0 +"
b0 *"
b0 )"
b0 ("
b0 '"
bx &"
b10 %"
b1 !"
b0 ~
b0 }
b0 |
b0 {
b0 z
b0 y
b0 x
b10000 w
b0 v
b0 u
b0 t
b0 s
bx r
bx q
b0 p
b0 l
b0 k
b0 j
b0 i
b0 h
b0 g
bx f
b0 e
b0 d
bx c
1b
b0 a
b0 `
bx _
0^
0]
0\
b100 [
b0 Z
b0 Y
b0 X
0W
0V
0U
b0 T
0S
b0 R
0Q
b0 P
b0 O
b0 N
b0 M
xL
0K
b0 J
0I
0H
b0 G
b0 F
0E
0D
0C
b0 B
0A
b0 @
0?
b0 >
b0 =
b0 <
b0 ;
b11000010000011 :
b0 9
b0 8
07
06
05
b0 4
b1 3
02
b0 1
00
b0 /
0.
b0 -
b0 ,
0+
b0 *
0)
0(
0'
b0 &
b0 %
b0 $
1#
0"
b0 !
$end
#5000
b10000 w
b100000 h"
1"
#10000
0"
#15000
b10000 w
b100000 h"
1"
#20000
0"
#25000
b10000 w
b100000 h"
1"
#30000
0"
#35000
b10000 w
b100000 h"
1"
#40000
0"
#45000
b100000000011000100000011 :
b100000000011000100000011 M"
b100000000011000100000011 R"
bx 3
bx !"
bx X"
1I
1D
1E
1?
b1 Q"
bx }
bx |
b1 j"
b100000000000 m"
b11 x
b11 z
b1 @
b1 ="
b1 u
b100 P"
b1000 `"
b1 ,
b1 ["
x0
bx 8
bx h
bx )"
bx V"
1A
b11000010000011 F
b11000010000011 N"
b11000010000011 i"
b100 9
b100 t
b100 L"
b100 _"
b1 %
0#
1"
#50000
0"
#55000
b111110010011 :
b111110010011 M"
b111110010011 R"
b1000 G
b1000 C"
b1000 k"
b10 Q"
b10 u
b1000 P"
b1000 l"
b10 j"
b10 m"
b10 @
b10 ="
b1000 <
b1000 4"
b1000 ?"
b1000 c"
b1100 `"
bx *
bx g
bx e"
b1000 9
b1000 t
b1000 L"
b1000 _"
b100000000011000100000011 F
b100000000011000100000011 N"
b100000000011000100000011 i"
b1100 ]"
b100 B
b100 B"
b100 O"
b1 R
b1 ("
b1 6"
b1 G"
1V
1Q
1W
1S
1^
bx ,
bx ["
bx /
bx Y"
b10 %
1"
#60000
0"
#65000
b0 G
b0 C"
b0 k"
b101000000000001000010011 :
b101000000000001000010011 M"
b101000000000001000010011 R"
1I
0D
0E
1?
b11 Q"
b1 s
b1000 [
b1000 ^"
b0 l"
b11111 j"
b100000011110 m"
b0 x
b10011 z
b11111 @
b11111 ="
b0 <
b0 4"
b0 ?"
b0 c"
b11 u
b1100 P"
b10000 `"
b1 4
b1 *"
b1 ,"
b1 5"
b1 W"
16
17
12
b1000 X
b1000 E"
b10 R
b10 ("
b10 6"
b10 G"
b1000 N
b1000 ."
b1000 J"
b100 T
b100 v
b100 F"
b111110010011 F
b111110010011 N"
b111110010011 i"
b1000 ]"
b1000 B
b1000 B"
b1000 O"
b1100 9
b1100 t
b1100 L"
b1100 _"
b11 %
1"
#70000
0"
#75000
b1000000000001010010011 :
b1000000000001010010011 M"
b1000000000001010010011 R"
b1010 G
b1010 C"
b1010 k"
b100 Q"
b100 u
b10000 P"
b1010 l"
b100 j"
b100 m"
b100 @
b100 ="
b1010 <
b1010 4"
b1010 ?"
b1010 c"
b10100 `"
b10 s
b1100 [
b1100 ^"
b10000 9
b10000 t
b10000 L"
b10000 _"
b101000000000001000010011 F
b101000000000001000010011 N"
b101000000000001000010011 i"
b10110 ]"
b1100 B
b1100 B"
b1100 O"
b0 X
b0 E"
b11111 R
b11111 ("
b11111 6"
b11111 G"
b0 N
b0 ."
b0 J"
b1000 T
b1000 v
b1000 F"
0V
0W
b10 4
b10 *"
b10 ,"
b10 5"
b10 W"
b1 -
b1 -"
b1 Z"
b1 d"
1.
1+
b100 %
1"
#80000
0"
#85000
b10 G
b10 C"
b10 k"
b1000001000000110110011 :
b1000001000000110110011 M"
b1000001000000110110011 R"
b101 Q"
b11 s
b10000 [
b10000 ^"
b10 l"
b101 j"
b100000000100 m"
b101 @
b101 ="
b10 <
b10 4"
b10 ?"
b10 c"
b101 u
b10100 P"
b11000 `"
b10 -
b10 -"
b10 Z"
b10 d"
b11111 4
b11111 *"
b11111 ,"
b11111 5"
b11111 W"
06
07
b1010 X
b1010 E"
b100 R
b100 ("
b100 6"
b100 G"
b1010 N
b1010 ."
b1010 J"
b1100 T
b1100 v
b1100 F"
b1000000000001010010011 F
b1000000000001010010011 N"
b1000000000001010010011 i"
b10010 ]"
b10000 B
b10000 B"
b10000 O"
b10100 9
b10100 t
b10100 L"
b10100 _"
b101 %
1"
#90000
0"
#95000
b1100011000111110010011 :
b1100011000111110010011 M"
b1100011000111110010011 R"
b110 Q"
0I
1?
bx =
bx A"
bx g"
b110 u
b11000 P"
b11 j"
b100000000010 m"
b110011 z
b11 @
b11 ="
b1 >
b1 3"
b1 >"
b1 b"
b11100 `"
b100 s
b10100 [
b10100 ^"
bx ;
bx @"
bx f"
b11000 9
b11000 t
b11000 L"
b11000 _"
b1000001000000110110011 F
b1000001000000110110011 N"
b1000001000000110110011 i"
b10110 ]"
b10100 B
b10100 B"
b10100 O"
b10 X
b10 E"
b101 R
b101 ("
b101 6"
b101 G"
b10 N
b10 ."
b10 J"
b10000 T
b10000 v
b10000 F"
b100 4
b100 *"
b100 ,"
b100 5"
b100 W"
b11111 -
b11111 -"
b11111 Z"
b11111 d"
0.
b110 %
1"
#100000
0"
#105000
b11 G
b11 C"
b11 k"
b10000000010010011 :
b10000000010010011 M"
b10000000010010011 R"
1I
1?
b0 ;
b0 @"
b0 f"
b0 =
b0 A"
b0 g"
b111 Q"
bx e
bx '"
bx p
b101 s
b11000 [
b11000 ^"
b11 l"
b11111 j"
b100000011110 m"
b10011 z
b11111 @
b11111 ="
b11 <
b11 4"
b11 ?"
b11 c"
b11 >
b11 3"
b11 >"
b11 b"
b111 u
b11100 P"
b100000 `"
b100 -
b100 -"
b100 Z"
b100 d"
b101 4
b101 *"
b101 ,"
b101 5"
b101 W"
bx M
bx K"
bx O
bx l
bx I"
b11 R
b11 ("
b11 6"
b11 G"
b1 P
b1 /"
b1 H"
b10100 T
b10100 v
b10100 F"
0^
b1100011000111110010011 F
b1100011000111110010011 N"
b1100011000111110010011 i"
b11011 ]"
b11000 B
b11000 B"
b11000 O"
b11100 9
b11100 t
b11100 L"
b11100 _"
bx !
bx a
bx a"
b111 %
1"
#110000
0"
#115000
b11000000100010011 :
b11000000100010011 M"
b11000000100010011 R"
b0 G
b0 C"
b0 k"
b1000 Q"
bx =
bx A"
bx g"
b1000 u
b100000 P"
b0 l"
b1 j"
b100000000000 m"
b1 @
b1 ="
b0 <
b0 4"
b0 ?"
b0 c"
b10 >
b10 3"
b10 >"
b10 b"
b100100 `"
1\
b0 e
b0 '"
b110 s
b11100 [
b11100 ^"
b10 Y
b10 i
b10 1"
b10 Z
b10 j
b10 0"
b100000 9
b100000 t
b100000 L"
b100000 _"
b10000000010010011 F
b10000000010010011 N"
b10000000010010011 i"
b11100 ]"
b11100 B
b11100 B"
b11100 O"
b11 X
b11 E"
b0 M
b0 K"
b0 O
b0 l
b0 I"
b11111 R
b11111 ("
b11111 6"
b11111 G"
b11 N
b11 ."
b11 J"
b11 P
b11 /"
b11 H"
b11000 T
b11000 v
b11000 F"
1^
b11 4
b11 *"
b11 ,"
b11 5"
b11 W"
bx 1
bx ~
bx +"
b101 -
b101 -"
b101 Z"
b101 d"
b1000 %
1"
#120000
0"
#125000
b1000101000000000100011 :
b1000101000000000100011 M"
b1000101000000000100011 R"
b0 =
b0 A"
b0 g"
b1001 Q"
0\
b0 Y
b0 i
b0 1"
b0 Z
b0 j
b0 0"
b111 s
b100000 [
b100000 ^"
b10 j"
b10 m"
b10 @
b10 ="
b11 >
b11 3"
b11 >"
b11 b"
b1001 u
b100100 P"
b101000 `"
b11 -
b11 -"
b11 Z"
b11 d"
b11111 4
b11111 *"
b11111 ,"
b11111 5"
b11111 W"
b0 1
b0 ~
b0 +"
b0 X
b0 E"
bx O
bx l
bx I"
b1 R
b1 ("
b1 6"
b1 G"
b0 N
b0 ."
b0 J"
b10 P
b10 /"
b10 H"
b11100 T
b11100 v
b11100 F"
b11000000100010011 F
b11000000100010011 N"
b11000000100010011 i"
b100000 ]"
b100000 B
b100000 B"
b100000 O"
b100100 9
b100100 t
b100100 L"
b100100 _"
b1001 %
1"
#130000
0"
#135000
b100101000001010010011 :
b100101000001010010011 M"
b100101000001010010011 R"
b1010 Q"
1C
1I
0?
bx ;
bx @"
bx f"
b1010 u
b101000 P"
b10 l"
b0 j"
b0 m"
b100011 z
b0 @
b0 ="
b10 <
b10 4"
b10 ?"
b10 c"
b101 >
b101 3"
b101 >"
b101 b"
b101100 `"
b0 p
b1000 s
b100100 [
b100100 ^"
bx =
bx A"
bx g"
b101000 9
b101000 t
b101000 L"
b101000 _"
b1000101000000000100011 F
b1000101000000000100011 N"
b1000101000000000100011 i"
b100100 ]"
b100100 B
b100100 B"
b100100 O"
b0 O
b0 l
b0 I"
b10 R
b10 ("
b10 6"
b10 G"
b11 P
b11 /"
b11 H"
b100000 T
b100000 v
b100000 F"
b1 4
b1 *"
b1 ,"
b1 5"
b1 W"
b11111 -
b11111 -"
b11111 Z"
b11111 d"
b1010 %
1"
#140000
0"
#145000
b1111110111111100110011 :
b1111110111111100110011 M"
b1111110111111100110011 R"
b1 G
b1 C"
b1 k"
1?
1I
0C
b1011 Q"
bx e
bx '"
bx p
b10 Y
b10 i
b10 1"
b1001 s
b101000 [
b101000 ^"
b10 d
b1 l"
b101 j"
b100000000100 m"
b10011 z
b101 @
b101 ="
b1 <
b1 4"
b1 ?"
b1 c"
b1011 u
b101100 P"
b110000 `"
b1 -
b1 -"
b1 Z"
b1 d"
b10 4
b10 *"
b10 ,"
b10 5"
b10 W"
bx M
bx K"
bx O
bx l
bx I"
b0 R
b0 ("
b0 6"
b0 G"
b10 N
b10 ."
b10 J"
b101 P
b101 /"
b101 H"
b100100 T
b100100 v
b100100 F"
0Q
1U
b100101000001010010011 F
b100101000001010010011 N"
b100101000001010010011 i"
b101001 ]"
b101000 B
b101000 B"
b101000 O"
b101100 9
b101100 t
b101100 L"
b101100 _"
b1011 %
1"
#150000
0"
#155000
b1111101110111000110011 :
b1111101110111000110011 M"
b1111101110111000110011 R"
b11 G
b11 C"
b11 k"
b1100 Q"
b10 J
b10 {
b10 <"
0I
1?
b0 =
b0 A"
b0 g"
b1100 u
b110000 P"
b11 l"
b11110 j"
b11110 m"
b111 x
b110011 z
b11110 @
b11110 ="
b11 <
b11 4"
b11 ?"
b11 c"
b11110 >
b11110 3"
b11110 >"
b11110 b"
b110100 `"
1\
b1010 s
b101100 [
b101100 ^"
b0 d
b0 Y
b0 i
b0 1"
b110000 9
b110000 t
b110000 L"
b110000 _"
b1111110111111100110011 F
b1111110111111100110011 N"
b1111110111111100110011 i"
b101111 ]"
b101100 B
b101100 B"
b101100 O"
b1 X
b1 E"
b101 R
b101 ("
b101 6"
b101 G"
b1 N
b1 ."
b1 J"
b101000 T
b101000 v
b101000 F"
1Q
0U
b0 4
b0 *"
b0 ,"
b0 5"
b0 W"
bx 1
bx ~
bx +"
15
02
b10 -
b10 -"
b10 Z"
b10 d"
b1100 %
1"
#160000
0"
#165000
b1000000010011111000110110110011 :
b1000000010011111000110110110011 M"
b1000000010011111000110110110011 R"
1L
b0 _
b0 r
b0 &"
1?
b11 J
b11 {
b11 <"
b1101 Q"
b0 p
b1011 s
b110000 [
b110000 ^"
b11100 j"
b11100 m"
b110 x
b11100 @
b11100 ="
b11101 >
b11101 3"
b11101 >"
b11101 b"
b1101 u
b110100 P"
b111000 `"
b0 -
b0 -"
b0 Z"
b0 d"
0+
b101 4
b101 *"
b101 ,"
b101 5"
b101 W"
05
12
b11 X
b11 E"
b0 O
b0 l
b0 I"
b11110 R
b11110 ("
b11110 6"
b11110 G"
b11 N
b11 ."
b11 J"
b11110 P
b11110 /"
b11110 H"
b101100 T
b101100 v
b101100 F"
0^
b10 `
b10 k
b10 D"
b1111101110111000110011 F
b1111101110111000110011 N"
b1111101110111000110011 i"
b110011 ]"
b110000 B
b110000 B"
b110000 O"
b110100 9
b110100 t
b110100 L"
b110100 _"
b1101 %
1"
#170000
0"
#175000
b11011000010001100011 :
b11011000010001100011 M"
b11011000010001100011 R"
b10000000100 G
b10000000100 C"
b10000000100 k"
b1110 Q"
1?
b1 J
b1 {
b1 <"
bx =
bx A"
bx g"
b1 3
b1 !"
b1 X"
b1110 u
b111000 P"
b10000000100 l"
b10000011011 j"
b110000011010 m"
b100000 y
b0 x
b11011 @
b11011 ="
b100 <
b100 4"
b100 ?"
b100 c"
b11111 >
b11111 3"
b11111 >"
b11111 b"
b111100 `"
b1100 s
b110100 [
b110100 ^"
xL
bx _
bx r
bx &"
b0 }
b0 |
b111000 9
b111000 t
b111000 L"
b111000 _"
b1000000010011111000110110110011 F
b1000000010011111000110110110011 N"
b1000000010011111000110110110011 i"
b10000111000 ]"
b110100 B
b110100 B"
b110100 O"
b11100 R
b11100 ("
b11100 6"
b11100 G"
b11101 P
b11101 /"
b11101 H"
b110000 T
b110000 v
b110000 F"
b11 `
b11 k
b11 D"
10
b11110 4
b11110 *"
b11110 ,"
b11110 5"
b11110 W"
b0 8
b0 h
b0 )"
b0 V"
b101 -
b101 -"
b101 Z"
b101 d"
1+
b1110 %
1"
#180000
0"
#185000
b1000 G
b1000 C"
b1000 k"
1\"
b11111100000000000000110011100011 :
b11111100000000000000110011100011 M"
b11111100000000000000110011100011 R"
bx 3
bx !"
bx X"
1H
0?
b1 J
b1 {
b1 <"
b0 ;
b0 @"
b0 f"
b0 =
b0 A"
b0 g"
b1111 Q"
b0 *
b0 g
b0 e"
bx }
bx |
0\
bx p
b1101 s
b111000 [
b111000 ^"
b0 l"
b1000 j"
b1000 m"
b0 y
b1100011 z
b1000 @
b1000 ="
b0 <
b0 4"
b0 ?"
b0 c"
b11011 >
b11011 3"
b11011 >"
b11011 b"
b1111 u
b111100 P"
b1000000 `"
b11110 -
b11110 -"
b11110 Z"
b11110 d"
b1 ,
b1 ["
b0 /
b0 Y"
x0
b11100 4
b11100 *"
b11100 ,"
b11100 5"
b11100 W"
bx 8
bx h
bx )"
bx V"
b10000000100 X
b10000000100 E"
bx O
bx l
bx I"
b11011 R
b11011 ("
b11011 6"
b11011 G"
b100 N
b100 ."
b100 J"
b11111 P
b11111 /"
b11111 H"
b110100 T
b110100 v
b110100 F"
b1 `
b1 k
b1 D"
b11011000010001100011 F
b11011000010001100011 N"
b11011000010001100011 i"
b1000000 ]"
b111000 B
b111000 B"
b111000 O"
b111100 9
b111100 t
b111100 L"
b111100 _"
b1111 %
1"
#190000
0"
#195000
b10011 :
b10011 M"
b10011 R"
b1111111111111111111111111111111111111111111111111111111111011000 G
b1111111111111111111111111111111111111111111111111111111111011000 C"
b1111111111111111111111111111111111111111111111111111111111011000 k"
b10000 Q"
1H
b1 J
b1 {
b1 <"
b0 u
b1000000 P"
b1111111111111111111111111111111111111111111111111111111111000000 l"
b1111111111111111111111111111111111111111111111111111111111011001 j"
b1111111111111111111111111111111111111111111111111111111111011000 m"
b1111110 y
b11001 @
b11001 ="
b0 >
b0 3"
b0 >"
b0 b"
b10100 `"
b0 e
b0 '"
b1110 s
b0xxxx00 [
b0xxxx00 ^"
x)
x(
x'
b10 Z
b10 j
b10 0"
bx *
bx g
bx e"
b1000000 9
b1000000 t
b1000000 L"
b1000000 _"
b11111100000000000000110011100011 F
b11111100000000000000110011100011 N"
b11111100000000000000110011100011 i"
b10100 ]"
b111100 B
b111100 B"
b111100 O"
b1000 X
b1000 E"
b0 M
b0 K"
b0 O
b0 l
b0 I"
b1000 R
b1000 ("
b1000 6"
b1000 G"
b0 N
b0 ."
b0 J"
b11011 P
b11011 /"
b11011 H"
b111000 T
b111000 v
b111000 F"
0Q
1]
b11011 4
b11011 *"
b11011 ,"
b11011 5"
b11011 W"
b11100 -
b11100 -"
b11100 Z"
b11100 d"
bx ,
bx ["
bx /
bx Y"
b10000 %
1"
#200000
0"
#205000
b0 G
b0 C"
b0 k"
0\"
b1000001000000110110011 :
b1000001000000110110011 M"
b1000001000000110110011 R"
b0 p
1I
1?
0H
b0 J
b0 {
b0 <"
b101 Q"
b0 Z
b0 j
b0 0"
b1111 s
b0x000000 [
b0x000000 ^"
b0 l"
b0 j"
b0 m"
b0 y
b10011 z
b0 @
b0 ="
b101 u
b10100 P"
b11000 `"
b11011 -
b11011 -"
b11011 Z"
b11011 d"
b1000 4
b1000 *"
b1000 ,"
b1000 5"
b1000 W"
b0 1
b0 ~
b0 +"
02
b1111111111111111111111111111111111111111111111111111111111011000 X
b1111111111111111111111111111111111111111111111111111111111011000 E"
b11001 R
b11001 ("
b11001 6"
b11001 G"
b0 P
b0 /"
b0 H"
b111100 T
b111100 v
b111100 F"
b10011 F
b10011 N"
b10011 i"
b1000000 ]"
b1000000 B
b1000000 B"
b1000000 O"
b10100 9
b10100 t
b10100 L"
b10100 _"
b10001 %
1"
#210000
0"
