pipelined_fibo.vcd
$date
	Tue Jun 24 10:19:58 2025
$end
$version
	Icarus Verilog
$end
$timescale
	1ps
$end
$scope module pipelined_cpu_tb $end
$var wire 64 ! debug_out [63:0] $end
$var reg 1 " clk $end
$var reg 1 # rst $end
$var integer 32 $ cycle_count [31:0] $end
$scope module cpu $end
$var wire 1 " clk $end
$var wire 64 % ex_alu_a_input [63:0] $end
$var wire 1 & ex_branch_taken $end
$var wire 1 ' ex_prediction_incorrect $end
$var wire 64 ( ex_store_data [63:0] $end
$var wire 1 ) flush_pipeline $end
$var wire 1 * hazard_stall $end
$var wire 1 + raw_hazard_detected $end
$var wire 1 # rst $end
$var wire 64 , wb_write_data [63:0] $end
$var wire 1 - wb_reg_write $end
$var wire 64 . wb_read_data [63:0] $end
$var wire 5 / wb_rd [4:0] $end
$var wire 1 0 wb_mem_to_reg $end
$var wire 64 1 wb_alu_result [63:0] $end
$var wire 1 2 mem_zero $end
$var wire 64 3 mem_write_data [63:0] $end
$var wire 1 4 mem_reg_write $end
$var wire 64 5 mem_read_data [63:0] $end
$var wire 5 6 mem_rd [4:0] $end
$var wire 1 7 mem_mem_write $end
$var wire 1 8 mem_mem_to_reg $end
$var wire 1 9 mem_mem_read $end
$var wire 64 : mem_alu_result [63:0] $end
$var wire 64 ; if_pc [63:0] $end
$var wire 32 < if_instruction [31:0] $end
$var wire 64 = id_rs2_data [63:0] $end
$var wire 5 > id_rs2 [4:0] $end
$var wire 64 ? id_rs1_data [63:0] $end
$var wire 5 @ id_rs1 [4:0] $end
$var wire 1 A id_reg_write $end
$var wire 5 B id_rd [4:0] $end
$var wire 1 C id_prediction $end
$var wire 64 D id_pc [63:0] $end
$var wire 1 E id_mem_write $end
$var wire 1 F id_mem_to_reg $end
$var wire 1 G id_mem_read $end
$var wire 32 H id_instruction [31:0] $end
$var wire 64 I id_imm [63:0] $end
$var wire 1 J id_branch $end
$var wire 1 K id_alu_src $end
$var wire 3 L id_alu_control [2:0] $end
$var wire 1 M ex_zero $end
$var wire 64 N ex_rs2_data [63:0] $end
$var wire 5 O ex_rs2 [4:0] $end
$var wire 64 P ex_rs1_data [63:0] $end
$var wire 5 Q ex_rs1 [4:0] $end
$var wire 1 R ex_reg_write $end
$var wire 5 S ex_rd [4:0] $end
$var wire 1 T ex_prediction $end
$var wire 64 U ex_pc [63:0] $end
$var wire 1 V ex_mem_write $end
$var wire 1 W ex_mem_to_reg $end
$var wire 1 X ex_mem_read $end
$var wire 32 Y ex_instruction [31:0] $end
$var wire 64 Z ex_imm [63:0] $end
$var wire 2 [ ex_forward_b [1:0] $end
$var wire 2 \ ex_forward_a [1:0] $end
$var wire 64 ] ex_corrected_pc [63:0] $end
$var wire 64 ^ ex_branch_target [63:0] $end
$var wire 1 _ ex_branch $end
$var wire 1 ` ex_alu_src $end
$var wire 64 a ex_alu_result [63:0] $end
$var wire 3 b ex_alu_control [2:0] $end
$var wire 64 c ex_alu_b_input [63:0] $end
$var wire 64 d debug_out [63:0] $end
$var wire 1 e branch_prediction $end
$var reg 1 f ex_branch_condition_met $end
$var reg 64 g ex_forwarded_a [63:0] $end
$var reg 64 h ex_forwarded_b [63:0] $end
$var integer 32 i cycle_count [31:0] $end
$scope module alu_inst $end
$var wire 64 j a [63:0] $end
$var wire 64 k b [63:0] $end
$var wire 2 l forward_a [1:0] $end
$var wire 2 m forward_b [1:0] $end
$var wire 64 n mem_result [63:0] $end
$var wire 64 o wb_result [63:0] $end
$var wire 1 M zero $end
$var wire 3 p alu_control [2:0] $end
$var reg 64 q result [63:0] $end
$upscope $end
$scope module bp_inst $end
$var wire 1 & branch_taken $end
$var wire 1 " clk $end
$var wire 1 e prediction $end
$var wire 1 # rst $end
$var wire 4 r resolved_index [3:0] $end
$var wire 64 s pc [63:0] $end
$var wire 4 t index [3:0] $end
$var wire 1 _ branch_resolved $end
$var wire 64 u branch_pc [63:0] $end
$scope begin $ivl_for_loop0 $end
$var integer 32 v i [31:0] $end
$upscope $end
$upscope $end
$scope module cu_inst $end
$var wire 3 w funct3 [2:0] $end
$var wire 7 x funct7 [6:0] $end
$var wire 7 y opcode [6:0] $end
$var reg 3 z alu_control [2:0] $end
$var reg 1 K alu_src $end
$var reg 1 J branch $end
$var reg 1 G mem_read $end
$var reg 1 F mem_to_reg $end
$var reg 1 E mem_write $end
$var reg 1 A reg_write $end
$upscope $end
$scope module data_mem_inst $end
$var wire 32 { addr [31:0] $end
$var wire 1 " clk $end
$var wire 1 # rst $end
$var wire 32 | word_addr [31:0] $end
$var wire 1 7 wr_enable $end
$var wire 64 } wr_data [63:0] $end
$var wire 1 9 rd_enable $end
$var wire 64 ~ rd_data [63:0] $end
$var parameter 32 !" mem_size $end
$var parameter 176 "" rom_file $end
$var parameter 32 #" rom_size $end
$var integer 32 $" i [31:0] $end
$upscope $end
$scope module ex_mem_reg_inst $end
$var wire 64 %" alu_result_in [63:0] $end
$var wire 1 " clk $end
$var wire 1 # rst $end
$var wire 64 &" wr_data_in [63:0] $end
$var wire 1 M zero_in $end
$var wire 1 R reg_wr_in $end
$var wire 5 '" rd_addr_in [4:0] $end
$var wire 1 V mem_wr_in $end
$var wire 1 W mem_to_reg_in $end
$var wire 1 X mem_rd_in $end
$var reg 64 (" alu_result_out [63:0] $end
$var reg 1 9 mem_rd_out $end
$var reg 1 8 mem_to_reg_out $end
$var reg 1 7 mem_wr_out $end
$var reg 5 )" rd_addr_out [4:0] $end
$var reg 1 4 reg_wr_out $end
$var reg 64 *" wr_data_out [63:0] $end
$var reg 1 2 zero_out $end
$upscope $end
$scope module fu_inst $end
$var wire 5 +" mem_rd [4:0] $end
$var wire 1 4 mem_reg_wr $end
$var wire 1 - wb_reg_wr $end
$var wire 5 ," wb_rd [4:0] $end
$var wire 5 -" ex_rs2 [4:0] $end
$var wire 5 ." ex_rs1 [4:0] $end
$var reg 2 /" forward_a [1:0] $end
$var reg 2 0" forward_b [1:0] $end
$upscope $end
$scope module id_ex_reg_inst $end
$var wire 3 1" alu_control_in [2:0] $end
$var wire 1 2" alu_src_in $end
$var wire 1 3" branch_in $end
$var wire 1 " clk $end
$var wire 1 ) flush $end
$var wire 1 4" mem_rd_in $end
$var wire 1 5" mem_to_reg_in $end
$var wire 1 6" mem_wr_in $end
$var wire 5 7" rd_addr_in [4:0] $end
$var wire 1 8" reg_wr_in $end
$var wire 5 9" rs1_addr_in [4:0] $end
$var wire 5 :" rs2_addr_in [4:0] $end
$var wire 1 # rst $end
$var wire 64 ;" rs2_data_in [63:0] $end
$var wire 64 <" rs1_data_in [63:0] $end
$var wire 1 C prediction_in $end
$var wire 64 =" pc_in [63:0] $end
$var wire 32 >" instr_in [31:0] $end
$var wire 64 ?" imm_in [63:0] $end
$var reg 3 @" alu_control_out [2:0] $end
$var reg 1 ` alu_src_out $end
$var reg 1 _ branch_out $end
$var reg 64 A" imm_out [63:0] $end
$var reg 32 B" instr_out [31:0] $end
$var reg 1 X mem_rd_out $end
$var reg 1 W mem_to_reg_out $end
$var reg 1 V mem_wr_out $end
$var reg 64 C" pc_out [63:0] $end
$var reg 1 T prediction_out $end
$var reg 5 D" rd_addr_out [4:0] $end
$var reg 1 R reg_wr_out $end
$var reg 5 E" rs1_addr_out [4:0] $end
$var reg 64 F" rs1_data_out [63:0] $end
$var reg 5 G" rs2_addr_out [4:0] $end
$var reg 64 H" rs2_data_out [63:0] $end
$upscope $end
$scope module if_id_reg_inst $end
$var wire 1 " clk $end
$var wire 1 ) flush $end
$var wire 1 e prediction_in $end
$var wire 1 # rst $end
$var wire 1 * stall $end
$var wire 64 I" pc_in [63:0] $end
$var wire 32 J" instr_in [31:0] $end
$var reg 32 K" instr_out [31:0] $end
$var reg 64 L" pc_out [63:0] $end
$var reg 1 C prediction_out $end
$upscope $end
$scope module instr_mem_inst $end
$var wire 32 M" address [31:0] $end
$var wire 32 N" word_addr [31:0] $end
$var wire 32 O" instruction [31:0] $end
$var parameter 176 P" mem_file $end
$var parameter 32 Q" mem_size $end
$var integer 32 R" i [31:0] $end
$upscope $end
$scope module mem_wb_reg_inst $end
$var wire 64 S" alu_result_in [63:0] $end
$var wire 1 " clk $end
$var wire 1 8 mem_to_reg_in $end
$var wire 5 T" rd_addr_in [4:0] $end
$var wire 64 U" rd_data_in [63:0] $end
$var wire 1 4 reg_wr_in $end
$var wire 1 # rst $end
$var reg 64 V" alu_result_out [63:0] $end
$var reg 1 0 mem_to_reg_out $end
$var reg 5 W" rd_addr_out [4:0] $end
$var reg 64 X" rd_data_out [63:0] $end
$var reg 1 - reg_wr_out $end
$upscope $end
$scope module pc_logic_inst $end
$var wire 1 & branch_taken $end
$var wire 64 Y" branch_target [63:0] $end
$var wire 1 " clk $end
$var wire 64 Z" corrected_pc [63:0] $end
$var wire 1 ' prediction_incorrect $end
$var wire 1 # rst $end
$var wire 1 * stall $end
$var reg 64 [" pc [63:0] $end
$var reg 64 \" pc_next [63:0] $end
$upscope $end
$scope module rf_inst $end
$var wire 1 " clk $end
$var wire 64 ]" debug_output [63:0] $end
$var wire 5 ^" rd_addr1 [4:0] $end
$var wire 5 _" rd_addr2 [4:0] $end
$var wire 1 # rst $end
$var wire 5 `" wr_addr [4:0] $end
$var wire 64 a" wr_data [63:0] $end
$var wire 1 - wr_enable $end
$var wire 64 b" x5_data [63:0] $end
$var wire 64 c" rd_data2 [63:0] $end
$var wire 64 d" rd_data1 [63:0] $end
$scope begin $ivl_for_loop1 $end
$var integer 32 e" i [31:0] $end
$upscope $end
$scope begin $ivl_for_loop2 $end
$var integer 32 f" i [31:0] $end
$upscope $end
$upscope $end
$scope module sign_ext_inst $end
$var wire 32 g" instr [31:0] $end
$var wire 7 h" opcode [6:0] $end
$var wire 64 i" imm_s [63:0] $end
$var wire 64 j" imm_i [63:0] $end
$var wire 64 k" imm_b [63:0] $end
$var reg 64 l" imm_out [63:0] $end
$upscope $end
$upscope $end
$scope begin $unm_blk_89 $end
$var integer 32 m" correct_count [31:0] $end
$var integer 32 n" i [31:0] $end
$var integer 32 o" mem_addr [31:0] $end
$var integer 32 p" mem_value [31:0] $end
$upscope $end
$upscope $end
$enddefinitions $end
$comment Show the parameter values. $end
$dumpall
b10100 Q"
b1110000011100100110111101100111011100100110000101101101011100110010111101100110011010010110001001101111010111110110001101101111011011010111000000101110011011010110010101101101 P"
b10 #"
b1110000011100100110111101100111011100100110000101101101011100110010111101100110011010010110001001101111010111110110010001100001011101000110000100101110011011010110010101101101 ""
b100000000 !"
$end
#0
$dumpvars
bx p"
bx o"
bx n"
bx m"
b0 l"
b0 k"
b0 j"
b0 i"
b10011 h"
b10011 g"
b0 f"
b100000 e"
b0 d"
b0 c"
b0 b"
b0 a"
b0 `"
b0 _"
b0 ^"
b0 ]"
b100 \"
b0 ["
b100 Z"
b0 Y"
b0 X"
b0 W"
b0 V"
b1 U"
b0 T"
b0 S"
b10000 R"
b11000010000011 O"
b0 N"
b0 M"
b0 L"
b10011 K"
b11000010000011 J"
b0 I"
b0 H"
b0 G"
b0 F"
b0 E"
b0 D"
b0 C"
b10011 B"
b0 A"
b0 @"
b0 ?"
b10011 >"
b0 ="
b0 <"
b0 ;"
b0 :"
b0 9"
18"
b0 7"
06"
05"
04"
03"
12"
b0 1"
b0 0"
b0 /"
b0 ."
b0 -"
b0 ,"
b0 +"
b0 *"
b0 )"
b0 ("
b0 '"
b0 &"
b0 %"
b10 $"
b1 ~
b0 }
b0 |
b0 {
b0 z
b10011 y
b0 x
b0 w
b10000 v
b0 u
b0 t
b0 s
b0 r
b0 q
b0 p
b0 o
b0 n
b0 m
b0 l
b0 k
b0 j
b0 i
b0 h
b0 g
0f
1e
b0 d
b0 c
b0 b
b0 a
0`
0_
b0 ^
b100 ]
b0 \
b0 [
b0 Z
b10011 Y
0X
0W
0V
b0 U
0T
b0 S
0R
b0 Q
b0 P
b0 O
b0 N
1M
b0 L
1K
0J
b0 I
b10011 H
0G
0F
0E
b0 D
0C
b0 B
1A
b0 @
b0 ?
b0 >
b0 =
b11000010000011 <
b0 ;
b0 :
09
08
07
b0 6
b1 5
04
b0 3
02
b0 1
00
b0 /
b0 .
0-
b0 ,
0+
0*
0)
b0 (
0'
0&
b0 %
b0 $
1#
0"
b0 !
$end
#5000
b10000 v
b100000 f"
1"
#10000
0"
#15000
b10000 v
b100000 f"
1"
#20000
0"
#25000
b10000 v
b100000 f"
1"
#30000
0"
#35000
b10000 v
b100000 f"
1"
#40000
0"
#45000
15"
14"
b100000000011000100000011 <
b100000000011000100000011 J"
b100000000011000100000011 O"
1F
1G
1K
1A
b1 N"
b11 h"
b1 i"
b100000000000 k"
b11 w
b11 y
b1 B
b1 7"
b1 t
b100 M"
b1000 \"
b1 .
b1 X"
12
1R
1`
1C
b11000010000011 H
b11000010000011 >"
b11000010000011 K"
b11000010000011 g"
b100 ;
b100 s
b100 I"
b100 ["
b1 i
b100000 f"
b1 $
0#
1"
#50000
0"
#55000
b111110010011 <
b111110010011 J"
b111110010011 O"
18"
14"
15"
12"
b10 N"
b1000 I
b1000 ?"
b1000 l"
0*
0+
b10 t
b1000 M"
b1100 \"
b1000 j"
b10 i"
b10 k"
b10 B
b10 7"
b1000 >
b1000 :"
b1000 _"
b1000 ;
b1000 s
b1000 I"
b1000 ["
b100000000011000100000011 H
b100000000011000100000011 >"
b100000000011000100000011 K"
b100000000011000100000011 g"
b100 D
b100 ="
b100 L"
b11000010000011 Y
b11000010000011 B"
b1 S
b1 '"
b1 D"
1W
1X
1T
14
b10 i
b10 $
1"
#60000
0"
#65000
05"
04"
b101000000000001000010011 <
b101000000000001000010011 J"
b101000000000001000010011 O"
0M
b1000 a
b1000 q
b1000 %"
b0 I
b0 ?"
b0 l"
1K
0F
0G
1A
b11 N"
b1000 c
b1000 k
b1 r
b1000 ]
b1000 Z"
b10011 h"
b0 j"
b11111 i"
b100000011110 k"
b0 w
b10011 y
b11111 B
b11111 7"
b0 >
b0 :"
b0 _"
b11 t
b1100 M"
b10000 \"
1-
b1 6
b1 )"
b1 +"
b1 T"
18
19
b100000000011000100000011 Y
b100000000011000100000011 B"
b1000 Z
b1000 A"
b10 S
b10 '"
b10 D"
b1000 O
b1000 -"
b1000 G"
b1100 ^
b1100 Y"
b100 U
b100 u
b100 C"
b111110010011 H
b111110010011 >"
b111110010011 K"
b111110010011 g"
b1000 D
b1000 ="
b1000 L"
b1100 ;
b1100 s
b1100 I"
b1100 ["
b11 i
b11 $
1"
#70000
0"
#75000
b1000000000001010010011 <
b1000000000001010010011 J"
b1000000000001010010011 O"
b100 N"
b1010 I
b1010 ?"
b1010 l"
1M
b0 a
b0 q
b0 %"
b0 5
b0 ~
b0 U"
b100 t
b10000 M"
b1010 j"
b100 i"
b100 k"
b100 B
b100 7"
b1010 >
b1010 :"
b1010 _"
b0 c
b0 k
b10 r
b1100 ]
b1100 Z"
b10100 \"
b1000 |
b1000 {
b1 ,
b1 a"
b10000 ;
b10000 s
b10000 I"
b10000 ["
b101000000000001000010011 H
b101000000000001000010011 >"
b101000000000001000010011 K"
b101000000000001000010011 g"
b1100 D
b1100 ="
b1100 L"
b111110010011 Y
b111110010011 B"
b0 Z
b0 A"
b11111 S
b11111 '"
b11111 D"
b0 O
b0 -"
b0 G"
b1000 ^
b1000 Y"
b1000 U
b1000 u
b1000 C"
0W
0X
02
b10 6
b10 )"
b10 +"
b10 T"
b1000 :
b1000 ("
b1000 S"
b1 /
b1 ,"
b1 W"
b1 `"
10
b100 i
b100 $
1"
#80000
0"
#85000
b1000001000000110110011 <
b1000001000000110110011 J"
b1000001000000110110011 O"
b1 5
b1 ~
b1 U"
0M
b1010 a
b1010 q
b1010 %"
b10 I
b10 ?"
b10 l"
b101 N"
b0 ,
b0 a"
b0 |
b0 {
b1010 c
b1010 k
b11 r
b10000 ]
b10000 Z"
b10 j"
b101 i"
b100000000100 k"
b101 B
b101 7"
b10 >
b10 :"
b10 _"
b101 t
b10100 M"
b11000 \"
b10 /
b10 ,"
b10 W"
b10 `"
b0 .
b0 X"
b1000 1
b1000 V"
12
b11111 6
b11111 )"
b11111 +"
b11111 T"
b0 :
b0 ("
b0 S"
08
09
b101000000000001000010011 Y
b101000000000001000010011 B"
b1010 Z
b1010 A"
b100 S
b100 '"
b100 D"
b1010 O
b1010 -"
b1010 G"
b10110 ^
b10110 Y"
b1100 U
b1100 u
b1100 C"
b1000000000001010010011 H
b1000000000001010010011 >"
b1000000000001010010011 K"
b1000000000001010010011 g"
b10000 D
b10000 ="
b10000 L"
b10100 ;
b10100 s
b10100 I"
b10100 ["
b101 i
b101 $
1"
#90000
0"
#95000
b1100011000111110010011 <
b1100011000111110010011 J"
b1100011000111110010011 O"
02"
b110 N"
0K
1A
b1 ?
b1 <"
b1 d"
b10 a
b10 q
b10 %"
b0 5
b0 ~
b0 U"
b110 t
b11000 M"
b110011 h"
b11 i"
b100000000010 k"
b110011 y
b11 B
b11 7"
b1 @
b1 9"
b1 ^"
b10 c
b10 k
b100 r
b10100 ]
b10100 Z"
b11100 \"
b1010 |
b1010 {
b11000 ;
b11000 s
b11000 I"
b11000 ["
b1000001000000110110011 H
b1000001000000110110011 >"
b1000001000000110110011 K"
b1000001000000110110011 g"
b10100 D
b10100 ="
b10100 L"
b1000000000001010010011 Y
b1000000000001010010011 B"
b10 Z
b10 A"
b101 S
b101 '"
b101 D"
b10 O
b10 -"
b10 G"
b10010 ^
b10010 Y"
b10000 U
b10000 u
b10000 C"
02
b100 6
b100 )"
b100 +"
b100 T"
b1010 :
b1010 ("
b1010 S"
b11111 /
b11111 ,"
b11111 W"
b11111 `"
b1 .
b1 X"
b0 1
b0 V"
00
b110 i
b110 $
1"
#100000
0"
#105000
08"
1*
1+
02"
b10000000010010011 <
b10000000010010011 J"
b10000000010010011 O"
b1 a
b1 q
b1 %"
b11 I
b11 ?"
b11 l"
1K
1A
b0 ?
b0 <"
b0 d"
b111 N"
b1010 ,
b1010 a"
b10 |
b10 {
b1 %
b1 j
b1 g
b101 r
b11000 ]
b11000 Z"
b0 c
b0 k
b10011 h"
b11 j"
b11111 i"
b100000011110 k"
b10011 y
b11111 B
b11111 7"
b11 >
b11 :"
b11 _"
b11 @
b11 9"
b11 ^"
b111 t
b11100 M"
b11100 \"
b100 /
b100 ,"
b100 W"
b100 `"
b0 .
b0 X"
b1010 1
b1010 V"
b101 6
b101 )"
b101 +"
b101 T"
b10 :
b10 ("
b10 S"
b1000001000000110110011 Y
b1000001000000110110011 B"
b1 P
b1 F"
b11 S
b11 '"
b11 D"
b1 Q
b1 ."
b1 E"
b10110 ^
b10110 Y"
b10100 U
b10100 u
b10100 C"
0`
b1100011000111110010011 H
b1100011000111110010011 >"
b1100011000111110010011 K"
b1100011000111110010011 g"
b11000 D
b11000 ="
b11000 L"
b11100 ;
b11100 s
b11100 I"
b11100 ["
b111 i
b111 $
1"
#110000
0"
#115000
18"
12"
b100000 \"
0*
0+
b10 a
b10 q
b10 %"
b1 5
b1 ~
b1 U"
b1 c
b1 k
b110 r
b11100 ]
b11100 Z"
b1 |
b1 {
b1 (
b1 &"
b1 h
b10 [
b10 0"
b10 \
b10 /"
b10 ,
b10 a"
b1100011000111110010011 Y
b1100011000111110010011 B"
b11 Z
b11 A"
b0 P
b0 F"
b11111 S
b11111 '"
b11111 D"
b11 O
b11 -"
b11 G"
b11 Q
b11 ."
b11 E"
b11011 ^
b11011 Y"
b11000 U
b11000 u
b11000 C"
0R
b11 6
b11 )"
b11 +"
b11 T"
b1 :
b1 ("
b1 S"
b101 /
b101 ,"
b101 W"
b101 `"
b10 1
b10 V"
b1000 i
b1000 $
1"
#120000
0"
#125000
b11000000100010011 <
b11000000100010011 J"
b11000000100010011 O"
b0 5
b0 ~
b0 U"
b100 a
b100 q
b100 %"
b0 I
b0 ?"
b0 l"
b1000 N"
b1 ,
b1 a"
b10 |
b10 {
b1 %
b1 j
b1 g
b1 (
b1 &"
b1 h
b1 [
b1 0"
b1 \
b1 /"
b11 c
b11 k
b0 j"
b1 i"
b100000000000 k"
b1 B
b1 7"
b0 >
b0 :"
b0 _"
b10 @
b10 9"
b10 ^"
b1000 t
b100000 M"
b100100 \"
b11 /
b11 ,"
b11 W"
b11 `"
b1 .
b1 X"
b1 1
b1 V"
b11111 6
b11111 )"
b11111 +"
b11111 T"
b1 3
b1 }
b1 *"
b10 :
b10 ("
b10 S"
04
1R
1`
b10000000010010011 H
b10000000010010011 >"
b10000000010010011 K"
b10000000010010011 g"
b11100 D
b11100 ="
b11100 L"
b100000 ;
b100000 s
b100000 I"
b100000 ["
b10 b"
b1001 i
b1001 $
1"
#130000
0"
#135000
b1000101000000000100011 <
b1000101000000000100011 J"
b1000101000000000100011 O"
b1001 N"
b1 ?
b1 <"
b1 d"
1M
b0 a
b0 q
b0 %"
b1001 t
b100100 M"
b10 i"
b10 k"
b10 B
b10 7"
b11 @
b11 9"
b11 ^"
b0 c
b0 k
b111 r
b100000 ]
b100000 Z"
b101000 \"
b100 |
b100 {
b0 %
b0 j
b0 g
b0 (
b0 &"
b0 h
b10 ,
b10 a"
b0 [
b0 0"
b0 \
b0 /"
b100100 ;
b100100 s
b100100 I"
b100100 ["
b11000000100010011 H
b11000000100010011 >"
b11000000100010011 K"
b11000000100010011 g"
b100000 D
b100000 ="
b100000 L"
b10000000010010011 Y
b10000000010010011 B"
b0 Z
b0 A"
b1 S
b1 '"
b1 D"
b0 O
b0 -"
b0 G"
b10 Q
b10 ."
b10 E"
b11100 ^
b11100 Y"
b11100 U
b11100 u
b11100 C"
b100 :
b100 ("
b100 S"
14
b11111 /
b11111 ,"
b11111 W"
b11111 `"
b0 .
b0 X"
b10 1
b10 V"
0-
b1010 i
b1010 $
1"
#140000
0"
#145000
02"
1*
1+
06"
08"
b100101000001010010011 <
b100101000001010010011 J"
b100101000001010010011 O"
b1 5
b1 ~
b1 U"
0M
b1 a
b1 q
b1 %"
1E
1K
0A
b10 ?
b10 <"
b10 d"
b1010 N"
b100 ,
b100 a"
b0 |
b0 {
b1 %
b1 j
b1 g
b1000 r
b100100 ]
b100100 Z"
b100011 h"
b10 j"
b0 i"
b0 k"
b100011 y
b0 B
b0 7"
b10 >
b10 :"
b10 _"
b101 @
b101 9"
b101 ^"
b1010 t
b101000 M"
b101000 \"
b100 1
b100 V"
1-
12
b1 6
b1 )"
b1 +"
b1 T"
b0 3
b0 }
b0 *"
b0 :
b0 ("
b0 S"
b11000000100010011 Y
b11000000100010011 B"
b1 P
b1 F"
b10 S
b10 '"
b10 D"
b11 Q
b11 ."
b11 E"
b100000 ^
b100000 Y"
b100000 U
b100000 u
b100000 C"
b1000101000000000100011 H
b1000101000000000100011 >"
b1000101000000000100011 K"
b1000101000000000100011 g"
b100100 D
b100100 ="
b100100 L"
b101000 ;
b101000 s
b101000 I"
b101000 ["
b1011 i
b1011 $
1"
#150000
0"
#155000
16"
12"
b101100 \"
0*
0+
b11 a
b11 q
b11 %"
b1001 r
b101000 ]
b101000 Z"
b1 c
b1 k
b1 |
b1 {
b10 %
b10 j
b10 g
b1 (
b1 &"
b1 h
b10 [
b10 0"
b0 ,
b0 a"
b1000101000000000100011 Y
b1000101000000000100011 B"
b10 P
b10 F"
b0 S
b0 '"
b0 D"
b10 O
b10 -"
b10 G"
b101 Q
b101 ."
b101 E"
b100100 ^
b100100 Y"
b100100 U
b100100 u
b100100 C"
0R
0`
02
b10 6
b10 )"
b10 +"
b10 T"
b1 :
b1 ("
b1 S"
b1 /
b1 ,"
b1 W"
b1 `"
b1 .
b1 X"
b0 1
b0 V"
b1100 i
b100 !
b100 d
b100 ]"
b1100 $
1"
#160000
0"
#165000
18"
06"
b1111110111111100110011 <
b1111110111111100110011 J"
b1111110111111100110011 O"
b0 5
b0 ~
b0 U"
b10 a
b10 q
b10 %"
b1 I
b1 ?"
b1 l"
1A
1K
0E
b1011 N"
b1 ,
b1 a"
b11 |
b11 {
b1 (
b1 &"
b1 h
b1 [
b1 0"
b0 c
b0 k
b10011 h"
b1 j"
b101 i"
b100000000100 k"
b10011 y
b101 B
b101 7"
b1 >
b1 :"
b1 _"
b1011 t
b101100 M"
b110000 \"
b10 /
b10 ,"
b10 W"
b10 `"
b1 1
b1 V"
b0 6
b0 )"
b0 +"
b0 T"
b1 3
b1 }
b1 *"
b11 :
b11 ("
b11 S"
04
1V
1`
b100101000001010010011 H
b100101000001010010011 >"
b100101000001010010011 K"
b100101000001010010011 g"
b101000 D
b101000 ="
b101000 L"
b101100 ;
b101100 s
b101100 I"
b101100 ["
b1101 i
b1101 $
1"
#170000
0"
#175000
18"
0*
0+
b1111101110111000110011 <
b1111101110111000110011 J"
b1111101110111000110011 O"
b10 1"
02"
b1100 N"
b11 I
b11 ?"
b11 l"
b10 L
b10 z
0K
1A
b1 =
b1 ;"
b1 c"
b0 ?
b0 <"
b0 d"
b11 a
b11 q
b11 %"
b1100 t
b110000 M"
b110011 h"
b11 j"
b11110 i"
b11110 k"
b111 w
b110011 y
b11110 B
b11110 7"
b11 >
b11 :"
b11 _"
b11110 @
b11110 9"
b11110 ^"
b1 c
b1 k
b1010 r
b101100 ]
b101100 Z"
b110100 \"
b10 |
b10 {
b0 (
b0 &"
b0 h
b11 ,
b11 a"
b0 [
b0 0"
b110000 ;
b110000 s
b110000 I"
b110000 ["
b1111110111111100110011 H
b1111110111111100110011 >"
b1111110111111100110011 K"
b1111110111111100110011 g"
b101100 D
b101100 ="
b101100 L"
b100101000001010010011 Y
b100101000001010010011 B"
b1 Z
b1 A"
b101 S
b101 '"
b101 D"
b1 O
b1 -"
b1 G"
b101001 ^
b101001 Y"
b101000 U
b101000 u
b101000 C"
1R
0V
b10 :
b10 ("
b10 S"
17
b0 /
b0 ,"
b0 W"
b0 `"
b0 .
b0 X"
b11 1
b11 V"
0-
b1110 i
b1110 $
1"
#180000
0"
#185000
b11 1"
b1000000010011111000110110110011 <
b1000000010011111000110110110011 J"
b1000000010011111000110110110011 O"
1A
b11 L
b11 z
b1101 N"
b10 ,
b10 a"
b11 |
b11 {
b1 (
b1 &"
b1 h
b0 %
b0 j
b0 g
b1011 r
b110000 ]
b110000 Z"
b1 c
b1 k
1M
b0 a
b0 q
b0 %"
b11100 i"
b11100 k"
b110 w
b11100 B
b11100 7"
b11101 @
b11101 9"
b11101 ^"
b1101 t
b110100 M"
b111000 \"
b0 5
b0 ~
b0 U"
b10 1
b10 V"
b101 6
b101 )"
b101 +"
b101 T"
b0 3
b0 }
b0 *"
b11 :
b11 ("
b11 S"
07
14
b1111110111111100110011 Y
b1111110111111100110011 B"
b11 Z
b11 A"
b1 N
b1 H"
b0 P
b0 F"
b11110 S
b11110 '"
b11110 D"
b11 O
b11 -"
b11 G"
b11110 Q
b11110 ."
b11110 E"
b101111 ^
b101111 Y"
b101100 U
b101100 u
b101100 C"
0`
b10 b
b10 p
b10 @"
b1111101110111000110011 H
b1111101110111000110011 >"
b1111101110111000110011 K"
b1111101110111000110011 g"
b110000 D
b110000 ="
b110000 L"
b110100 ;
b110100 s
b110100 I"
b110100 ["
b1111 i
b1111 $
1"
#190000
0"
#195000
b11011000010001100011 <
b11011000010001100011 J"
b11011000010001100011 O"
b1 1"
b1110 N"
b10000000100 I
b10000000100 ?"
b10000000100 l"
1A
b1 L
b1 z
b1010 =
b1010 ;"
b1010 c"
b100 ?
b100 <"
b100 d"
b1 5
b1 ~
b1 U"
b1110 t
b111000 M"
b10000000100 j"
b10000011011 i"
b110000011010 k"
b100000 x
b0 w
b11011 B
b11011 7"
b100 >
b100 :"
b100 _"
b11111 @
b11111 9"
b11111 ^"
b1100 r
b110100 ]
b110100 Z"
b111100 \"
0M
b1 a
b1 q
b1 %"
b0 |
b0 {
b11 ,
b11 a"
b111000 ;
b111000 s
b111000 I"
b111000 ["
b1000000010011111000110110110011 H
b1000000010011111000110110110011 >"
b1000000010011111000110110110011 K"
b1000000010011111000110110110011 g"
b110100 D
b110100 ="
b110100 L"
b1111101110111000110011 Y
b1111101110111000110011 B"
b11100 S
b11100 '"
b11100 D"
b11101 Q
b11101 ."
b11101 E"
b110011 ^
b110011 Y"
b110000 U
b110000 u
b110000 C"
b11 b
b11 p
b11 @"
12
b11110 6
b11110 )"
b11110 +"
b11110 T"
b1 3
b1 }
b1 *"
b0 :
b0 ("
b0 S"
b101 /
b101 ,"
b101 W"
b101 `"
b11 1
b11 V"
1-
b10000 i
b10000 $
1"
#200000
0"
